//done

 --> POST https://api2.homebank.kz/hbapi/api/v1/payments 

{"inputParameters":{"contract":"3340814"},"paymentId":0,"serviceName":"otauTV"}


    <-- 200 https://api2.homebank.kz/hbapi/api/v1/payments (1087ms)

 {
      "paymentId": 1180059295,
      "serviceName": "otauTV",
      "authorizationType": null,
      "inputParameters": {
        "contract": "3340814",
        "token": "DEMF6ZXYOW-S1N1XBEUGKA"
      },
      "outputParameters": {
        "invoices": [
          {
            "id": "125",
            "name": "Пакет «OTAU TV +»",
            "headerParams": [
              {
                "paramValue": "Самат",
I/okhttp.OkHttpClient:             "paramId": null,
                "paramName": "Имя клиента"
              }
            ],
            "summaryAmount": [
              {
                "value": 990.0,
                "currency": "тг/мес."
              }
            ],
            "additionalInfo": [],
            "items": [
              {
                "id": "125",
                "name": "",
                "class": "",
                "calculation": "",
                "params": [
                  {
                    "paramCode": "Amount",
                    "visable": true,
                    "editable": true,
                    "paramValue": "990",
                    "paramId": "FixSum",
                    "paramName": "Стоимость пакета"
                  }
                ]
              }
            ],
            "accountId": "3340814"
          },
          {
            "id": "130",
            "name": "Пакет \"Премиум\"",
            "headerParams": [
              {
                "paramValue": "Самат",
                "paramId": null,
                "paramName": "Имя клиента"
              }
            ],
            "summaryAmount": [
              {
                "value": 2950.0,
                "currency": "тг/мес."
              }
            ],
            "additionalInfo": [],
I/okhttp.OkHttpClient:         "items": [
              {
                "id": "130",
                "name": "",
                "class": "",
                "calculation": "",
                "params": [
                  {
                    "paramCode": "Amount",
                    "visable": true,
                    "editable": true,
                    "paramValue": "2950",
                    "paramId": "FixSum",
                    "paramName": "Стоимость пакета"
                  }
                ]
              }
            ],
            "accountId": "3340814"
          },
          {
            "id": "999",
            "name": "Пополнение без смены пакета",
            "headerParams": [
              {
                "paramValue": "Самат",
                "paramId": null,
                "paramName": "Имя клиента"
              }
            ],
            "summaryAmount": [],
            "additionalInfo": [],
            "items": [
              {
                "id": "999",
                "name": "",
                "class": "",
                "calculation": "",
                "params": [
                  {
                    "paramCode": "Amount",
                    "visable": true,
                    "editable": true,
                    "paramValue": "",
                    "paramId": "FixSum",
I/okhttp.OkHttpClient:                 "paramName": "Стоимость пакета"
                  }
                ]
              }
            ],
            "accountId": "3340814"
          },
          {
            "id": "130,140",
            "name": "Пакет \"Премиум + ViP\"",
            "headerParams": [
              {
                "paramValue": "Самат",
                "paramId": null,
                "paramName": "Имя клиента"
              }
            ],
            "summaryAmount": [
              {
                "value": 4140.0,
                "currency": "тг/мес."
              }
            ],
            "additionalInfo": [],
            "items": [
              {
                "id": "130,140",
                "name": "",
                "class": "",
                "calculation": "",
                "params": [
                  {
                    "paramCode": "Amount",
                    "visable": true,
                    "editable": true,
                    "paramValue": "4140",
                    "paramId": "FixSum",
                    "paramName": "Стоимость пакета"
                  }
                ]
              }
            ],
            "accountId": "3340814"
          }
        ]
      }
    }
I/okhttp.OkHttpClient: <-- END HTTP (3874-byte body)