--> PUT https://api2.homebank.kz/hbapi/api/v1/payments h2
 {"inputParameters":{"amount":990.0,"cardAlias":"","cardId":198968160,"cardMask":"444482-xx-xxxx-8630","contract":"3340814","currency":"KZT","invoiceDetails":[{"id":"125","name":"Пакет «OTAU TV +»","params":[{"editable":true,"paramCode":"Amount","paramId":"FixSum","paramName":"Стоимость пакета","paramValue":"990.0","visable":true}]}],"invoiceId":"125","isSaveCard":false},"paymentId":1180103191,"serviceName":"otauTV"}


 <-- 400 https://api2.homebank.kz/hbapi/api/v1/payments 
{
      "resultCode": -269,
      "resultDescription": "Недостаточно средств на карте. Пополните карту или укажите меньшую сумму  ",
      "data": null
    }