{
  "id": "smartschoolkzCardLostNurSultan",
  "options": {
    "subTitle": {
      "ru-RU": "Оплата услуг сервиса",
      "kz-KZ": "Сервис қызметтеріне ақы төлеу",
      "en-US": "Pyament for the services provided"
    },
    "webStyles": [
      {
        "key": "background-image",
        "value": "linear-gradient(103deg,#10a9ff,#005a8b)"
      }
    ],
    "startingPageId": "initialPage"
  },
  "pages": [
    {
      "id": "initialPage",
      "type": "normal",
      "options": {},
      "containers": [
        {
          "id": "0",
          "type": "flat",
          "options": {
            "webAlignment": "Vertical",
            "mobileDefaultConstraints": {
              "left": 0,
              "right": 0,
              "top": 0,
              "bottom": 0
            }
          },
          "blocks": [
            {
              "id": "0-0",
              "type": "roundedContainer",
              "options": {
                "webAlignment": "Vertical",
                "mobileDefaultConstraints": {
                  "left": 16,
                  "right": 16,
                  "top": 16,
                  "bottom": 0
                }
              },
              "elements": [
                {
                  "id": "0-0-0",
                  "parameterId": "contract",
                  "type": "inputField",
                  "options": {
                    "mobileDefaultConstraints": {
                      "left": 16,
                      "right": 16,
                      "top": 2,
                      "bottom": 2
                    },
                    "description": {
                      "ru-RU": "Номер лицевого счета",
                      "kz-KZ": "Шот нөмірі",
                      "en-US": "Account number"
                    },
                    "webPlaceholder": {
                      "ru-RU": "0000123",
                      "kz-KZ": "0000123",
                      "en-US": "0000123"
                    },
                    "formatting": "number",
                    "keyboard": "number",
                    "onResignPreCheck": {
                      "parameterId": "contract",
                      "checkCondition": {
                        "regex": "^[0-9]{3,}$"
                      },
                      "errorActions": [
                        {
                          "id": "rpc-0.0",
                          "type": "highlightElem",
                          "options": {
                            "targetElem": "0-0-0",
                            "highlightParent": true,
                            "text": {
                              "ru-RU": "Введите корректный номер счета",
                              "kz-KZ": "Шоттың нөмірін енгізіңіз",
                              "en-US": "Please enter an account number"
                            }
                          }
                        }
                      ]
                    }
                  }
                }
              ]
            },
            {
              "id": "0-1",
              "type": "flat",
              "options": {
                "webAlignment": "Vertical",
                "mobileDefaultConstraints": {
                  "left": 16,
                  "right": 16,
                  "top": 8,
                  "bottom": 0
                }
              },
              "elements": [
                {
                  "id": "0-1-0",
                  "type": "label",
                  "options": {
                    "webTextAlignment": "left",
                    "mobileTextAlignment": "left",
                    "mobileDefaultConstraints": {
                      "left": 0,
                      "right": 0,
                      "top": 0,
                      "bottom": 0
                    },
                    "description": {
                      "ru-RU": "Указан на бумажной квитанции",
                      "kz-KZ": "Қағаз түбіртегінде көрсетілген",
                      "en-US": "Indicated on paper receipt"
                    },
                    "icon": "template_label_info",
                    "fontSize": 13
                  }
                }
              ]
            },
            {
              "id": "0-2",
              "type": "flat",
              "options": {
                "webAlignment": "Vertical",
                "mobileDefaultConstraints": {
                  "left": 0,
                  "right": 0,
                  "top": 16,
                  "bottom": 80
                }
              },
              "elements": [
                {
                  "id": "0-2-0",
                  "type": "submit",
                  "parameterId": "continue",
                  "actionId": "checkContract",
                  "options": {
                    "webTextAligment": "center",
                    "mobileDefaultConstraints": {
                      "left": 16,
                      "right": 16,
                      "top": 16,
                      "bottom": 0
                    },
                    "description": {
                      "ru-RU": "Проверить",
                      "kz-KZ": "Тексеру",
                      "en-US": "Check"
                    }
                  }
                }
              ]
            }
          ]
        }
      ]
    },
    {
      "id": "secondPage",
      "type": "normal",
      "options": {},
      "containers": [
        {
          "id": "1",
          "type": "flat",
          "options": {
            "mobileDefaultConstraints": {
              "left": 0,
              "right": 0,
              "top": 0,
              "bottom": 0
            }
          },
          "blocks": [
            {
              "id": "1-0",
              "type": "flat",
              "options": {
                "webAlignment": "Vertical",
                "mobileDefaultConstraints": {
                  "left": 0,
                  "right": 0,
                  "top": 16,
                  "bottom": 0
                },
                "mobileBackgroundColor": "FFFFFF"
              },
              "elements": [
                {
                  "id": "1-0-0",
                  "type": "flatList",
                  "options": {
                    "mobileDefaultConstraints": {
                      "left": 16,
                      "right": 16,
                      "top": 8,
                      "bottom": 0
                    },
                    "description": {
                      "ru-RU": "Информация",
                      "kz-KZ": "Ақпарат",
                      "en-US": "Information"
                    },
                    "listData": [
                      {
                        "id": "1-0-0-0",
                        "label": {
                          "ru-RU": "Номер лицевого счета",
                          "kz-KZ": "Шот нөмірі",
                          "en-US": "Account number"
                        },
                        "value": "{0}",
                        "dependencies": [
                          "contract"
                        ]
                      },
                      {
                        "id": "1-0-0-1",
                        "label": {
                          "ru-RU": "ФИО",
                          "kz-KZ": "Аты-жөні",
                          "en-US": "Account holder name"
                        },
                        "value": "{0}",
                        "dependencies": [
                          "clientName"
                        ]
                      },
                      {
                        "id": "1-0-0-2",
                        "label": {
                          "ru-RU": "Адрес",
                          "kz-KZ": "Мекен-жайы",
                          "en-US": "Account address"
                        },
                        "value": "{0}",
                        "dependencies": [
                          "clientAddress"
                        ]
                      }
                    ]
                  }
                }
              ]
            },
            {
              "id": "1-1",
              "type": "roundedContainer",
              "options": {
                "webAlignment": "Vertical",
                "mobileDefaultConstraints": {
                  "left": 16,
                  "right": 16,
                  "top": 16,
                  "bottom": 0
                }
              },
              "elements": [
                {
                  "id": "1-1-0",
                  "parameterId": "amount",
                  "type": "inputField",
                  "options": {
                    "webAlignment": "Vertical",
                    "mobileDefaultConstraints": {
                      "left": 16,
                      "right": 16,
                      "top": 2,
                      "bottom": 2
                    },
                    "description": {
                      "ru-RU": "Сумма к оплате",
                      "kz-KZ": "Төленетін сома",
                      "en-US": "Amount to pay"
                    },
                    "webPlaceholder": {
                      "ru-RU": "200",
                      "kz-KZ": "200",
                      "en-US": "200"
                    },
                    "formatting": "priceAmount",
                    "keyboard": "decimal",
                    "onResignPreCheck": {
                      "parameterId": "amount",
                      "checkCondition": {
                        "range": {
                          "min": "1",
                          "max": "1000000000",
                          "dataType": "double"
                        }
                      },
                      "errorActions": [
                        {
                          "id": "rpc-1.0",
                          "type": "highlightElem",
                          "options": {
                            "targetElem": "1-1-0",
                            "highlightParent": true,
                            "text": {
                              "ru-RU": "Введите сумму",
                              "kz-KZ": "Соманы енгізіңіз",
                              "en-US": "Please enter the amount"
                            }
                          }
                        }
                      ]
                    }
                  }
                }
              ]
            },
            {
              "id": "1-2",
              "type": "flat",
              "options": {
                "webAlignment": "Vertical",
                "mobileDefaultConstraints": {
                  "left": 0,
                  "right": 0,
                  "top": 16,
                  "bottom": 0
                }
              },
              "elements": [
                {
                  "id": "1-2-0",
                  "parameterId": "commission",
                  "actionId": "commissionAlert",
                  "type": "commission",
                  "options": {
                    "calculateFromParamId": "amount",
                    "webTextAligment": "left",
                    "mobileTextAlignment": "center",
                    "mobileDefaultConstraints": {
                      "left": 0,
                      "right": 0,
                      "top": 0,
                      "bottom": 0
                    },
                    "description": {
                      "ru-RU": "Комиссия: {0} ₸",
                      "kz-KZ": "Комиссия: {0} ₸",
                      "en-US": "commission: {0} ₸"
                    },
                    "highLightedText": [{
                      "ru-RU": "{0} ₸",
                      "kz-KZ": "{0} ₸",
                      "en-US": "{0} ₸"
                    }],
                    "dependencies": [
                      "commission"
                    ]
                  }
                }
              ]
            },
            {
              "id": "1-3",
              "type": "roundedContainer",
              "options": {
                "webAlignment": "Vertical",
                "mobileDefaultConstraints": {
                  "left": 16,
                  "right": 16,
                  "top": 16,
                  "bottom": 0
                }
              },
              "elements": [
                {
                  "id": "1-3-0",
                  "parameterId": "card",
                  "type": "paymentSelector",
                  "options": {
                    
                    "mobileDefaultConstraints": {
                      "left": 16,
                      "right": 16,
                      "top": 2,
                      "bottom": 2
                    },
                    "label": {
                      "ru-RU": "Выберите способ оплаты",
                      "kz-KZ": "Төлем әдісін таңдаңыз",
                      "en-US": "Choose a payment method"
                    }
                  }
                }
              ]
            },
            {
              "id": "1-4",
              "type": "flat",
              "options": {
                "webAlignment": "Vertical",
                "mobileDefaultConstraints": {
                  "left": 0,
                  "right": 0,
                  "top": 16,
                  "bottom": 80
                }
              },
              "elements": [
                {
                  "id": "1-4-0",
                  "type": "submit",
                  "actionId": "showExecPage",
                  "parameterId": "overallAmount",
                  "options": {
                    "webTextAligment": "center",
                    "mobileDefaultConstraints": {
                      "left": 16,
                      "right": 16,
                      "top": 16,
                      "bottom": 0
                    },
                    "description": {
                      "ru-RU": "Оплатить {0} ₸",
                      "kz-KZ": "Төлеу үшін {0} ₸",
                      "en-US": "Pay {0} ₸"
                    },
                    "dependencies": [
                      "overallAmount"
                    ],
                    "sumFromParams": [
                      "amount",
                      "commission"
                    ]
                  }
                }
              ]
            }
          ]
        }
      ]
    },
    {
      "id": "execPage",
      "type": "execPage",
      "options": {
        "actionId": "exec",
        "displayInfo": {
          "card": "card",
          "commission": "commission",
          "amount": "amount"
        }
      },
      "containers": []
    }
  ],
  "parameters": [
    {
      "id": "contract",
      "dataType": "string"
    },
    {
      "id": "continue",
      "dataType": "double"
    },
    {
      "id": "clientName",
      "dataType": "string"
    },
    {
      "id": "clientAddress",
      "dataType": "string"
    },
    {
      "id": "amount",
      "dataType": "double"
    },
    {
      "id": "card",
      "dataType": "cardData"
    },
    {
      "id": "overallAmount",
      "dataType": "double"
    },
    {
      "id": "commission",
      "dataType": "double"
    },
    {
      "id": "errorDesc",
      "dataType": "string"
    }
  ],
  "actions": [
    {
      "id": "hideAllErrors",
      "type": "hideAllErrors",
      "options": {}
    },
    {
      "id": "commissionAlert",
      "type": "alert",
      "options": {
        "text": {
          "ru-RU": "Комиссия Homebank 0 ₸ \nКомиссия агрегатора {0} ₸",
          "kz-KZ": "Homebank комиссиясы 0 ₸ \nАгрегатордың комиссиясы {0} ₸",
          "en-US": "Homebank Commission 0 ₸ \nAggregator commission {0} ₸"
        },
        "title": {
          "ru-RU": "Комиссия",
          "kz-KZ": "Комиссия",
          "en-US": "Commission"
        },
        "dependencies": [
          "commission"
        ]
      }
    },
    {
      "id": "checkContract",
      "type": "checkRequest",
      "options": {
        "parameters": [
          {
            "id": "contract",
            "valueFromParam": "contract"
          },
          {
            "id": "amount",
            "value": "10"
          }
        ],
        "preChecks": [
          {
            "parameterId": "contract",
            "checkCondition": {
              "regex": "^[0-9]{3,}$"
            },
            "errorActions": [
              {
                "id": "pc-0.0",
                "type": "setParam",
                "options": {
                  "dataType": "double",
                  "value": null,
                  "parameterId": "continue"
                }
              },
              {
                "id": "pc-0.1",
                "type": "highlightElem",
                "options": {
                  "targetElem": "0-0-0",
                  "highlightParent": true,
                  "text": {
                    "ru-RU": "Введите корректный номер счета",
                    "kz-KZ": "Шот нөмірін дұрыс енгізіңіз",
                    "en-US": "Please enter a correct account"
                  }
                }
              },
              {
                "id": "pc-0.2",
                "type": "becomeFirstResponder",
                "options": {
                  "targetElem": "0-0-0"
                }
              },
              {
                "id": "pc-0.3",
                "type": "taptic",
                "options": {
                  "tapType": "warning"
                }
              }
            ]
          }
        ],
        "errorResponseActions": [
          {
            "code": "-214",
            "responseActions": [
              {
                "id": "era-0.0",
                "type": "setParam",
                "options": {
                  "dataType": "double",
                  "value": null,
                  "parameterId": "continue"
                }
              },
              {
                "id": "era-0.1",
                "type": "highlightElem",
                "options": {
                  "targetElem": "0-0-0",
                  "highlightParent": true,
                  "text": {
                    "ru-RU": "Данный абонент не найден",
                    "kz-KZ": "Бұл шот табылмады",
                    "en-US": "This account was not found"
                  }
                }
              },
              {
                "id": "era-0.2",
                "type": "becomeFirstResponder",
                "options": {
                  "targetElem": "0-0-0"
                }
              },
              {
                "id": "era-0.3",
                "type": "taptic",
                "options": {
                  "tapType": "warning"
                }
              }
            ]
          },
          {
            "code": "other",
            "responseActions": [
              {
                "id": "era-1.0",
                "type": "setParam",
                "options": {
                  "dataType": "double",
                  "value": null,
                  "parameterId": "continue"
                }
              },
              {
                "id": "era-1.1",
                "type": "setParam",
                "options": {
                  "dataType": "string",
                  "valueFrom": [
                    {
                      "id": "resultDescription",
                      "dataType": "string"
                    }
                  ],
                  "parameterId": "errorDesc"
                }
              },
              {
                "id": "era-1.2",
                "type": "alert",
                "options": {
                  "text": {
                    "ru-RU": "{0}",
                    "kz-KZ": "{0}",
                    "en-US": "{0}"
                  },
                  "title": {
                    "ru-RU": "Ошибка",
                    "kz-KZ": "Қате",
                    "en-US": "Error"
                  },
                  "dependencies": [
                    "errorDesc"
                  ]
                }
              },
              {
                "id": "era-1.3",
                "type": "taptic",
                "options": {
                  "tapType": "warning"
                }
              }
            ]
          }
        ],
        "successResponseActions": [
          {
            "id": "sra-0.0",
            "type": "setParam",
            "options": {
              "dataType": "double",
              "value": null,
              "parameterId": "continue"
            }
          },
          {
            "id": "sra-0.1",
            "type": "setParam",
            "options": {
              "dataType": "string",
              "valueFrom": [
                {
                  "id": "clientName",
                  "dataType": "string"
                }
              ],
              "parameterId": "clientName"
            }
          },
          {
            "id": "sra-0.2",
            "type": "setParam",
            "options": {
              "dataType": "string",
              "valueFrom": [
                {
                  "id": "clientAddress",
                  "dataType": "string"
                }
              ],
              "parameterId": "clientAddress"
            }
          },
          {
            "id": "sra-0.3",
            "type": "showPage",
            "options": {
              "pageId": "secondPage"
            }
          }
        ]
      }
    },
    {
      "id": "showExecPage",
      "type": "checkRequest",
      "options": {
        "parameters": [
          {
            "id": "contract",
            "valueFromParam": "contract"
          },
          {
            "id": "amount",
            "valueFromParam": "amount"
          }
        ],
        "preChecks": [
          {
            "parameterId": "amount",
            "checkCondition": {
              "range": {
                "min": "1",
                "max": "1000000000000",
                "dataType": "double"
              }
            },
            "errorActions": [
              {
                "id": "pc-1.0",
                "type": "setParam",
                "options": {
                  "dataType": "double",
                  "value": null,
                  "parameterId": "overallAmount"
                }
              },
              {
                "id": "pc-1.1",
                "type": "highlightElem",
                "options": {
                  "targetElem": "1-1-0",
                  "highlightParent": true,
                  "text": {
                    "ru-RU": "Введите корректную сумму",
                    "kz-KZ": "Дұрыс соманы енгізіңіз",
                    "en-US": "Please enter an amount"
                  }
                }
              },
              {
                "id": "pc-1.2",
                "type": "becomeFirstResponder",
                "options": {
                  "targetElem": "1-1-0"
                }
              },
              {
                "id": "pc-1.3",
                "type": "taptic",
                "options": {
                  "tapType": "warning"
                }
              }
            ]
          },
          {
            "parameterId": "card",
            "errorActions": [
              {
                "id": "pc-2.0",
                "type": "setParam",
                "options": {
                  "dataType": "double",
                  "value": null,
                  "parameterId": "overallAmount"
                }
              },
              {
                "id": "pc-2.1",
                "type": "highlightElem",
                "options": {
                  "targetElem": "1-3-0",
                  "highlightParent": true
                }
              },
              {
                "id": "pc-2.2",
                "type": "becomeFirstResponder",
                "options": {
                  "targetElem": "1-3-0"
                }
              },
              {
                "id": "pc-2.3",
                "type": "taptic",
                "options": {
                  "tapType": "warning"
                }
              }
            ]
          }
        ],
        "errorResponseActions": [
          {
            "code": "other",
            "responseActions": [
              {
                "id": "era-2.0",
                "type": "setParam",
                "options": {
                  "dataType": "double",
                  "value": null,
                  "parameterId": "overallAmount"
                }
              },
              {
                "id": "era-2.1",
                "type": "setParam",
                "options": {
                  "dataType": "string",
                  "valueFrom": [
                    {
                      "id": "resultDescription",
                      "dataType": "string"
                    }
                  ],
                  "parameterId": "errorDesc"
                }
              },
              {
                "id": "era-2.2",
                "type": "alert",
                "options": {
                  "text": {
                    "ru-RU": "{0}",
                    "kz-KZ": "{0}",
                    "en-US": "{0}"
                  },
                  "title": {
                    "ru-RU": "Ошибка",
                    "kz-KZ": "Қате",
                    "en-US": "Error"
                  },
                  "dependencies": [
                    "errorDesc"
                  ]
                }
              },
              {
                "id": "era-2.3",
                "type": "taptic",
                "options": {
                  "tapType": "warning"
                }
              }
            ]
          }
        ],
        "successResponseActions": [
          {
            "id": "sra-1.0",
            "type": "showPage",
            "options": {
              "pageId": "execPage"
            }
          }
        ]
      }
    },
    {
      "id": "exec",
      "type": "execRequest",
      "options": {
        "chosenCardParam": "card",
        "parameters": [
          {
            "id": "amount",
            "valueFromParam": "amount"
          }
        ],
        "errorResponseActions": [
          {
            "code": "other",
            "responseActions": [
              {
                "id": "pc-3.0",
                "type": "setParam",
                "options": {
                  "dataType": "double",
                  "value": null,
                  "parameterId": "overallAmount"
                }
              },
              {
                "id": "pc-3.1",
                "type": "setParam",
                "options": {
                  "dataType": "string",
                  "valueFrom": [
                    {
                      "id": "resultDescription",
                      "dataType": "string"
                    }
                  ],
                  "parameterId": "errorDesc"
                }
              },
              {
                "id": "pc-3.2",
                "type": "alert",
                "options": {
                  "text": {
                    "ru-RU": "{0}",
                    "kz-KZ": "{0}",
                    "en-US": "{0}"
                  },
                  "title": {
                    "ru-RU": "Ошибка",
                    "kz-KZ": "Қате",
                    "en-US": "Error"
                  },
                  "dependencies": [
                    "errorDesc"
                  ]
                }
              },
              {
                "id": "pc-3.3",
                "type": "taptic",
                "options": {
                  "tapType": "warning"
                }
              }
            ]
          }
        ],
        "successResponseActions": [
          {
            "id": "sra-2.0",
            "type": "setParam",
            "options": {
              "dataType": "double",
              "value": null,
              "parameterId": "overallAmount"
            }
          },
          {
            "id": "sra-2.1",
            "type": "finishTemplate",
            "options": {
              "title": {
                "ru-RU": "Спасибо",
                "kz-KZ": "Рахмет",
                "en-US": "Thanks"
              },
              "text": {
                "ru-RU": "Ваш платеж успешно отправлен в обработку!",
                "kz-KZ": "Сіздің төлеміңіз сәтті өңдеуге жіберілді!",
                "en-US": "Your payment has been successfully sent for processing!"
              }
            }
          }
        ]
      }
    }
  ]
}