{
  "id": "NazarbaevIntellectualSchools",
  "options": {
    "subTitle": {
      "ru-RU": "Оплата услуг сервиса",
      "kz-KZ": "Сервис қызметтеріне ақы төлеу",
      "en-US": "Pyament for the services provided"
    },
    "webStyles": [
      {
        "key": "background-image",
        "value": "linear-gradient(103deg,#10a9ff,#005a8b)"
      }
    ],
    "startingPageId": "initialPage"
  },
  "pages": [
    {
      "id": "initialPage",
      "type": "normal",
      "options": {},
      "containers": [
        {
          "id": "0",
          "type": "flat",
          "options": {
            "webAlignment": "Vertical",
            "mobileDefaultConstraints": {
              "left": 0,
              "right": 0,
              "top": 0,
              "bottom": 0
            }
          },
          "blocks": [
            {
              "id": "roundedContainer",
              "type": "roundedContainer",
              "options": {
                "webAlignment": "Vertical",
                "mobileDefaultConstraints": {
                  "left": 16,
                  "right": 16,
                  "top": 16,
                  "bottom": 0
                }
              },
              "elements": [
                {
                  "id": "purpose",
                  "parameterId": "purpose",
                  "type": "selector",
                  "options": {
                    "showUnderline": true,
                    "mobileDefaultConstraints": {
                      "left": 16,
                      "right": 16,
                      "top": 2,
                      "bottom": 0
                    },
                    "onValueChangeActions": [
                      "hideAllErrors"
                    ],
                    "description": {
                      "ru-RU": "Назначение платежа",
                      "kz-KZ": "Назначение платежа",
                      "en-US": "Назначение платежа"
                    },
                    "webPlaceholder": {
                      "ru-RU": "Назначение платежа",
                      "kz-KZ": "Назначение платежа",
                      "en-US": "Назначение платежа"
                    },
                    "selectionData": [
                      {
                        "id": "оплата за обучение",
                        "text": {
                          "ru-RU": "оплата за обучение",
                          "kz-KZ": "оплата за обучение",
                          "en-US": "оплата за обучение"
                        }
                      },
                      {
                        "id": "оплата за проживание в общежитии",
                        "text": {
                          "ru-RU": "оплата за проживание в общежитии",
                          "kz-KZ": "оплата за проживание в общежитии",
                          "en-US": "оплата за проживание в общежитии"
                        }
                      },
                      {
                        "id": "оплата за питание",
                        "text": {
                          "ru-RU": "оплата за питание",
                          "kz-KZ": "оплата за питание",
                          "en-US": "оплата за питание"
                        }
                      },
                      {
                        "id": "оплата для участия детей в летних школах",
                        "text": {
                          "ru-RU": "оплата для участия детей в летних школах",
                          "kz-KZ": "оплата для участия детей в летних школах",
                          "en-US": "оплата для участия детей в летних школах"
                        }
                      },
                      {
                        "id": "оплата за участие в пробном тестировании",
                        "text": {
                          "ru-RU": "оплата за участие в пробном тестировании",
                          "kz-KZ": "оплата за участие в пробном тестировании",
                          "en-US": "оплата за участие в пробном тестировании"
                        }
                      },
                      {
                        "id": "приобретение учебных материалов",
                        "text": {
                          "ru-RU": "приобретение учебных материалов",
                          "kz-KZ": "приобретение учебных материалов",
                          "en-US": "приобретение учебных материалов"
                        }
                      },
                      {
                        "id": "оплата на благотворительных ярмарках",
                        "text": {
                          "ru-RU": "оплата на благотворительных ярмарках",
                          "kz-KZ": "оплата на благотворительных ярмарках",
                          "en-US": "оплата на благотворительных ярмарках"
                        }
                      },
                      {
                        "id": "оказание спонсорской помощи",
                        "text": {
                          "ru-RU": "оказание спонсорской помощи",
                          "kz-KZ": "оказание спонсорской помощи",
                          "en-US": "оказание спонсорской помощи"
                        }
                      }
                    ]
                  }
                },
                {
                  "id": "clientFio",
                  "parameterId": "clientFio",
                  "type": "inputField",
                  "options": {
                    "mobileDefaultConstraints": {
                      "left": 16,
                      "right": 16,
                      "top": 2,
                      "bottom": 2
                    },
                    "description": {
                      "ru-RU": "ФИО клиента",
                      "kz-KZ": "ФИО клиента",
                      "en-US": "ФИО клиента"
                    },
                    "webPlaceholder": {
                      "ru-RU": "ФИО клиента",
                      "kz-KZ": "ФИО клиента",
                      "en-US": "ФИО клиента"
                    },
                    "formatting": "none",
                    "keyboard": "email",
                    "showUnderline": true,
                    "onValueChangeActions": [
                      "hideAllErrors"
                    ],
                    "onResignPreCheck": {
                      "parameterId": "clientFio",
                      "checkCondition": {
                        "regex": ".{1,}$"
                      },
                      "errorActions": [
                        {
                          "id": "rpc-0.0",
                          "type": "highlightElem",
                          "options": {
                            "targetElem": "clientFio",
                            "highlightParent": false,
                            "text": {
                              "ru-RU": "Введите корректные данные",
                              "kz-KZ": "Введите корректные данные",
                              "en-US": "Please enter correct data"
                            }
                          }
                        }
                      ]
                    }
                  }
                },
                {
                  "id": "clientIin",
                  "parameterId": "clientIin",
                  "type": "inputField",
                  "options": {
                    "mobileDefaultConstraints": {
                      "left": 16,
                      "right": 16,
                      "top": 2,
                      "bottom": 2
                    },
                    "description": {
                      "ru-RU": "ИИН клиента",
                      "kz-KZ": "ИИН клиента",
                      "en-US": "ИИН клиента"
                    },
                    "webPlaceholder": {
                      "ru-RU": "ИИН клиента",
                      "kz-KZ": "ИИН клиента",
                      "en-US": "ИИН клиента"
                    },
                    "formatting": "none",
                    "keyboard": "email",
                    "showUnderline": false,
                    "onValueChangeActions": [
                      "hideAllErrors"
                    ],
                    "onResignPreCheck": {
                      "parameterId": "clientIin",
                      "checkCondition": {
                        "regex": ".{1,}$"
                      },
                      "errorActions": [
                        {
                          "id": "rpc-0.0",
                          "type": "highlightElem",
                          "options": {
                            "targetElem": "clientIin",
                            "highlightParent": false,
                            "text": {
                              "ru-RU": "Введите корректные данные",
                              "kz-KZ": "Введите корректные данные",
                              "en-US": "Please enter correct data"
                            }
                          }
                        }
                      ]
                    }
                  }
                }
              ]
            },
            {
              "id": "amountContainer",
              "type": "roundedContainer",
              "options": {
                "webAlignment": "Vertical",
                "mobileDefaultConstraints": {
                  "left": 16,
                  "right": 16,
                  "top": 16,
                  "bottom": 0
                },
                "mobileBackgroundColor": "FFFFFF"
              },
              "elements": [
                {
                  "id": "amount",
                  "parameterId": "amount",
                  "type": "inputField",
                  "options": {
                    "webAlignment": "Vertical",
                    "mobileDefaultConstraints": {
                      "left": 16,
                      "right": 16,
                      "top": 2,
                      "bottom": 2
                    },
                    "description": {
                      "ru-RU": "Сумма к оплате",
                      "kz-KZ": "Төленетін сома",
                      "en-US": "Amount to pay"
                    },
                    "webPlaceholder": {
                      "ru-RU": "200",
                      "kz-KZ": "200",
                      "en-US": "200"
                    },
                    "formatting": "priceAmount",
                    "keyboard": "decimal",
                    "onResignPreCheck": {
                      "parameterId": "amount",
                      "checkCondition": {
                        "range": {
                          "min": "99",
                          "max": "1000000000",
                          "dataType": "double"
                        }
                      },
                      "errorActions": [
                        {
                          "id": "rpc-1.0",
                          "type": "highlightElem",
                          "options": {
                            "targetElem": "amount",
                            "highlightParent": true,
                            "text": {
                              "ru-RU": "Введите сумму, минимум 100 тг.",
                              "kz-KZ": "Соманы енгізіңіз, минимум 100 тг.",
                              "en-US": "Please enter the amount, minimum 100 tg."
                            }
                          }
                        }
                      ]
                    }
                  }
                }
              ]
            },
            {
              "id": "commisionContainer",
              "type": "flat",
              "options": {
                "webAlignment": "Vertical",
                "mobileDefaultConstraints": {
                  "left": 16,
                  "right": 16,
                  "top": 16,
                  "bottom": 0
                }
              },
              "elements": [
                {
                  "id": "commision",
                  "parameterId": "commission",
                  "actionId": "commissionAlert",
                  "type": "commission",
                  "options": {
                    "calculateFromParamId": "amount",
                    "webTextAligment": "left",
                    "mobileTextAlignment": "center",
                    "mobileDefaultConstraints": {
                      "left": 0,
                      "right": 0,
                      "top": 0,
                      "bottom": 0
                    },
                    "description": {
                      "ru-RU": "Комиссия: {0} ₸",
                      "kz-KZ": "Комиссия: {0} ₸",
                      "en-US": "commission: {0} ₸"
                    },
                    "highLightedText": [
                      {
                        "ru-RU": "{0} ₸",
                        "kz-KZ": "{0} ₸",
                        "en-US": "{0} ₸"
                      }
                    ],
                    "dependencies": [
                      "commission"
                    ]
                  }
                }
              ]
            },
            {
              "id": "cardContainer",
              "type": "roundedContainer",
              "options": {
                "webAlignment": "Vertical",
                "mobileDefaultConstraints": {
                  "left": 16,
                  "right": 16,
                  "top": 16,
                  "bottom": 0
                }
              },
              "elements": [
                {
                  "id": "card",
                  "parameterId": "card",
                  "type": "paymentSelector",
                  "options": {
                    "mobileDefaultConstraints": {
                      "left": 16,
                      "right": 16,
                      "top": 2,
                      "bottom": 2
                    },
                    "label": {
                      "ru-RU": "Выберите способ оплаты",
                      "kz-KZ": "Төлем әдісін таңдаңыз",
                      "en-US": "Choose payment method"
                    }
                  }
                }
              ]
            },
            {
              "id": "overallAmountContainer",
              "type": "flat",
              "options": {
                "webAlignment": "Vertical",
                "mobileDefaultConstraints": {
                  "left": 0,
                  "right": 0,
                  "top": 16,
                  "bottom": 80
                }
              },
              "elements": [
                {
                  "id": "overallAmount",
                  "type": "submit",
                  "actionId": "checkRequest",
                  "parameterId": "overallAmount",
                  "options": {
                    "webTextAligment": "center",
                    "mobileDefaultConstraints": {
                      "left": 16,
                      "right": 16,
                      "top": 16,
                      "bottom": 0
                    },
                    "description": {
                      "ru-RU": "Оплатить {0} ₸",
                      "kz-KZ": "Оплатить {0} ₸",
                      "en-US": "Confirm {0} ₸"
                    },
                    "dependencies": [
                      "overallAmount"
                    ],
                    "sumFromParams": [
                      "amount",
                      "commission"
                    ]
                  }
                }
              ]
            }
          ]
        }
      ]
    },
    {
      "id": "execPage",
      "type": "execPage",
      "options": {
        "actionId": "exec",
        "displayInfo": {
          "card": "card",
          "commission": "commission",
          "amount": "amount"
        }
      },
      "containers": []
    }
  ],
  "parameters": [
    {
      "id": "purpose",
      "dataType": "string"
    },
    {
      "id": "clientFio",
      "dataType": "string"
    },
    {
      "id": "clientIin",
      "dataType": "string"
    },
    {
      "id": "amount",
      "dataType": "double"
    },
    {
      "id": "commission",
      "dataType": "double"
    },
    {
      "id": "card",
      "dataType": "cardData"
    },
    {
      "id": "overallAmount",
      "dataType": "double"
    },
    {
      "id": "errorDesc",
      "dataType": "string"
    }
  ],
  "actions": [
    {
      "id": "hideAllErrors",
      "type": "hideAllErrors",
      "options": {}
    },
    {
      "id": "commissionAlert",
      "type": "alert",
      "options": {
        "text": {
          "ru-RU": "Комиссия Homebank 0 ₸ \nКомиссия агрегатора {0} ₸",
          "kz-KZ": "Homebank комиссиясы 0 ₸ \nАгрегатордың комиссиясы {0} ₸",
          "en-US": "Homebank Commission 0 ₸ \nAggregator commission {0} ₸"
        },
        "title": {
          "ru-RU": "Комиссия",
          "kz-KZ": "Комиссия",
          "en-US": "Commission"
        },
        "dependencies": [
          "commission"
        ]
      }
    },
    {
      "id": "checkRequest",
      "type": "checkRequest",
      "options": {
        "parameters": [
          {
            "id": "purpose",
            "valueFromParam": "purpose"
          },
          {
            "id": "clientFio",
            "valueFromParam": "clientFio"
          },
          {
            "id": "clientIin",
            "valueFromParam": "clientIin"
          }
        ],
        "preChecks": [
          {
            "parameterId": "purpose",
            "checkCondition": {
              "regex": ".{1,}$"
            },
            "errorActions": [
              {
                "id": "Stop spinning submit button action for purpose",
                "type": "setParam",
                "options": {
                  "dataType": "double",
                  "value": null,
                  "parameterId": "overallAmount"
                }
              },
              {
                "id": "Highlight element on error action for purpose",
                "type": "highlightElem",
                "options": {
                  "targetElem": "purpose",
                  "highlightParent": false,
                  "text": {
                    "ru-RU": "Введите корректные данные",
                    "kz-KZ": "Дұрыс деректерді енгізіңіз",
                    "en-US": "Please enter correct details"
                  }
                }
              },
              {
                "id": "Select element and open keyboard error action for purpose",
                "type": "becomeFirstResponder",
                "options": {
                  "targetElem": "purpose"
                }
              },
              {
                "id": "Taptic error action for purpose",
                "type": "taptic",
                "options": {
                  "tapType": "warning"
                }
              }
            ]
          },
          {
            "parameterId": "clientFio",
            "checkCondition": {
              "regex": ".{1,}$"
            },
            "errorActions": [
              {
                "id": "Stop spinning submit button action for clientFio",
                "type": "setParam",
                "options": {
                  "dataType": "double",
                  "value": null,
                  "parameterId": "overallAmount"
                }
              },
              {
                "id": "Highlight element on error action for clientFio",
                "type": "highlightElem",
                "options": {
                  "targetElem": "clientFio",
                  "highlightParent": false,
                  "text": {
                    "ru-RU": "Введите корректные данные",
                    "kz-KZ": "Дұрыс деректерді енгізіңіз",
                    "en-US": "Please enter correct details"
                  }
                }
              },
              {
                "id": "Select element and open keyboard error action for clientFio",
                "type": "becomeFirstResponder",
                "options": {
                  "targetElem": "clientFio"
                }
              },
              {
                "id": "Taptic error action for clientFio",
                "type": "taptic",
                "options": {
                  "tapType": "warning"
                }
              }
            ]
          },
          {
            "parameterId": "clientIin",
            "checkCondition": {
              "regex": ".{1,}$"
            },
            "errorActions": [
              {
                "id": "Stop spinning submit button action for clientIin",
                "type": "setParam",
                "options": {
                  "dataType": "double",
                  "value": null,
                  "parameterId": "overallAmount"
                }
              },
              {
                "id": "Highlight element on error action for clientIin",
                "type": "highlightElem",
                "options": {
                  "targetElem": "clientIin",
                  "highlightParent": false,
                  "text": {
                    "ru-RU": "Введите корректные данные",
                    "kz-KZ": "Дұрыс деректерді енгізіңіз",
                    "en-US": "Please enter correct details"
                  }
                }
              },
              {
                "id": "Select element and open keyboard error action for clientIin",
                "type": "becomeFirstResponder",
                "options": {
                  "targetElem": "clientIin"
                }
              },
              {
                "id": "Taptic error action for clientIin",
                "type": "taptic",
                "options": {
                  "tapType": "warning"
                }
              }
            ]
          },
          {
            "parameterId": "amount",
            "checkCondition": {
              "range": {
                "min": "99",
                "max": "1000000000",
                "dataType": "double"
              }
            },
            "errorActions": [
              {
                "id": "pc-1.0",
                "type": "setParam",
                "options": {
                  "dataType": "double",
                  "value": null,
                  "parameterId": "overallAmount"
                }
              },
              {
                "id": "pc-1.1",
                "type": "highlightElem",
                "options": {
                  "targetElem": "amount",
                  "highlightParent": true,
                  "text": {
                    "ru-RU": "Введите корректную сумму, минимум 100 тг.",
                    "kz-KZ": "Дұрыс мөлшерді енгізіңіз, минимум 100 тг.",
                    "en-US": "Please enter a correct amount, minimum 100 tg."
                  }
                }
              },
              {
                "id": "pc-1.2",
                "type": "becomeFirstResponder",
                "options": {
                  "targetElem": "amount"
                }
              },
              {
                "id": "pc-1.3",
                "type": "taptic",
                "options": {
                  "tapType": "warning"
                }
              }
            ]
          },
          {
            "parameterId": "card",
            "errorActions": [
              {
                "id": "pc-2.0",
                "type": "setParam",
                "options": {
                  "dataType": "double",
                  "value": null,
                  "parameterId": "overallAmount"
                }
              },
              {
                "id": "pc-2.1",
                "type": "highlightElem",
                "options": {
                  "targetElem": "card",
                  "highlightParent": true
                }
              },
              {
                "id": "pc-2.2",
                "type": "becomeFirstResponder",
                "options": {
                  "targetElem": "card"
                }
              }
            ]
          }
        ],
        "errorResponseActions": [
          {
            "code": "other",
            "responseActions": [
              {
                "id": "era-1.0",
                "type": "setParam",
                "options": {
                  "dataType": "double",
                  "value": null,
                  "parameterId": "overallAmount"
                }
              },
              {
                "id": "era-1.1",
                "type": "setParam",
                "options": {
                  "dataType": "string",
                  "valueFrom": [
                    {
                      "id": "resultDescription",
                      "dataType": "string"
                    }
                  ],
                  "parameterId": "errorDesc"
                }
              },
              {
                "id": "era-1.2",
                "type": "alert",
                "options": {
                  "text": {
                    "ru-RU": "{0}",
                    "kz-KZ": "{0}",
                    "en-US": "{0}"
                  },
                  "title": {
                    "ru-RU": "Ошибка",
                    "kz-KZ": "Қателік",
                    "en-US": "Error"
                  },
                  "dependencies": [
                    "errorDesc"
                  ]
                }
              },
              {
                "id": "era-1.3",
                "type": "taptic",
                "options": {
                  "tapType": "warning"
                }
              }
            ]
          }
        ],
        "successResponseActions": [
          {
            "id": "sra-0.0",
            "type": "setParam",
            "options": {
              "dataType": "double",
              "value": null,
              "parameterId": "overallAmount"
            }
          },
          {
            "id": "sra-0.1",
            "type": "showPage",
            "options": {
              "pageId": "execPage"
            }
          }
        ]
      }
    },
    {
      "id": "exec",
      "type": "execRequest",
      "options": {
        "chosenCardParam": "card",
        "parameters": [
          {
            "id": "amount",
            "valueFromParam": "amount"
          }
        ],
        "errorResponseActions": [
          {
            "code": "other",
            "responseActions": [
              {
                "id": "era-2.0",
                "type": "setParam",
                "options": {
                  "dataType": "string",
                  "valueFrom": [
                    {
                      "id": "resultDescription",
                      "dataType": "string"
                    }
                  ],
                  "parameterId": "errorDesc"
                }
              },
              {
                "id": "era-2.1",
                "type": "alert",
                "options": {
                  "text": {
                    "ru-RU": "{0}",
                    "kz-KZ": "{0}",
                    "en-US": "{0}"
                  },
                  "title": {
                    "ru-RU": "Ошибка",
                    "kz-KZ": "Қате",
                    "en-US": "Error"
                  },
                  "dependencies": [
                    "errorDesc"
                  ]
                }
              },
              {
                "id": "era-2.2",
                "type": "taptic",
                "options": {
                  "tapType": "warning"
                }
              }
            ]
          }
        ],
        "successResponseActions": [
          {
            "id": "sra-1.0",
            "type": "finishTemplate",
            "options": {
              "title": {
                "ru-RU": "Спасибо",
                "kz-KZ": "Рахмет",
                "en-US": "Thanks"
              },
              "text": {
                "ru-RU": "Ваш платеж успешно отправлен в обработку!",
                "kz-KZ": "Сіздің төлеміңіз сәтті өңдеуге жіберілді!",
                "en-US": "Your payment has been successfully sent for processing!"
              }
            }
          }
        ]
      }
    }
  ]
}