{
  "id": "deductionsCSHI",
  "options": {
    "subTitle": {
      "ru-RU": "Оплата услуг сервиса",
      "kz-KZ": "Сервис қызметтеріне ақы төлеу",
      "en-US": "Payment for the services provided"
    },
    "webStyles": [
      {
        "key": "background-image",
        "value": "linear-gradient(103deg,#10a9ff,#005a8b)"
      }
    ],
    "startingPageId": "initialPage"
  },
  "pages": [
    {
      "id": "initialPage",
      "type": "normal",
      "options": {},
      "containers": [
        {
          "id": "0",
          "type": "flat",
          "options": {
            "webAlignment": "Vertical",
            "mobileDefaultConstraints": {
              "left": 0,
              "right": 0,
              "top": 0,
              "bottom": 0
            }
          },
          "blocks": [
            {
              "id": "0-0",
              "type": "roundedContainer",
              "options": {
                "webAlignment": "Vertical",
                "mobileDefaultConstraints": {
                  "left": 16,
                  "right": 16,
                  "top": 16,
                  "bottom": 0
                }
              },
              "elements": [
                {
                  "id": "0-0-0",
                  "parameterId": "card",
                  "type": "paymentSelector",
                  "options": {
                    "mobileDefaultConstraints": {
                      "left": 16,
                      "right": 16,
                      "top": 2,
                      "bottom": 2
                    },
                    "label": {
                      "ru-RU": "Выберите способ оплаты",
                      "kz-KZ": "Төлем әдісін таңдаңыз",
                      "en-US": "Choose payment method"
                    }
                  }
                }
              ]
            },
            {
              "id": "0-1",
              "type": "roundedContainer",
              "options": {
                "webAlignment": "Vertical",
                "mobileDefaultConstraints": {
                  "left": 16,
                  "right": 16,
                  "top": 16,
                  "bottom": 0
                },
                "mobileBackgroundColor": "FFFFFF"
              },
              "elements": [
                {
                  "id": "0-1-0",
                  "parameterId": "knp",
                  "type": "selector",
                  "options": {
                    "showUnderline": true,
                    "mobileDefaultConstraints": {
                      "left": 16,
                      "right": 16,
                      "top": 2,
                      "bottom": 0
                    },
                    "onValueChangeActions": [],
                    "description": {
                      "ru-RU": "Тип платежа",
                      "kz-KZ": "Төлем түрі",
                      "en-US": "Payment type"
                    },
                    "webPlaceholder": {
                      "ru-RU": "Тип платежа",
                      "kz-KZ": "Төлем түрі",
                      "en-US": "Payment type"
                    },
                    "selectionData": [
                      {
                        "id": "121",
                        "text": {
                          "ru-RU": "КНП 121 • Отчисления на обязательное социальное медицинское страхование (за сотрудника)",
                          "kz-KZ": "ТТК 121 • Міндетті әлеуметтік медициналық сақтандыру шегерімдерi (қызметкер үшін)",
                          "en-US": "PPC 121 • Compulsory social health insurance contributions (for an employee)"
                        }
                      },
                      {
                        "id": "123",
                        "text": {
                          "ru-RU": "КНП 123 • Пеня за несвоевременное перечисление отчислений на ОСМС",
                          "kz-KZ": "ТТК 123 • МӘМС аударымдарын уақтылы аудармағаны үшін өсімпұл",
                          "en-US": "PPC 123 • Penalty for late transfer of deductions to compulsory health insurance"
                        }
                      },
                      {
                        "id": "122",
                        "text": {
                          "ru-RU": "КНП 122 • Взносы на обязательное социальное медицинское страхование (за сотрудника)",
                          "kz-KZ": "ТТК 122 • Міндетті әлеуметтік медициналық сақтандыру жарналары (қызметкер үшін)",
                          "en-US": "PPC 122 • Compulsory social health insurance contributions (per employee)"
                        }
                      },
                      {
                        "id": "124",
                        "text": {
                          "ru-RU": "КНП 124 • Пеня за несвоевременное перечисление взносов на ОСМС",
                          "kz-KZ": "ТТК 124 • МӘМС жарналарын уақтылы аудармағаны үшін өсімпұл",
                          "en-US": "PPC 124 • Penalty for late transfer of contributions to compulsory health insurance"
                        }
                      }
                    ]
                  }
                },
                {
                  "id": "0-1-2",
                  "parameterId": "period",
                  "type": "datePicker",
                  "options": {
                    "showUnderline": true,
                    "mobileDefaultConstraints": {
                      "left": 16,
                      "right": 16,
                      "top": 2,
                      "bottom": 0
                    },
                    "onValueChangeActions": [],
                    "description": {
                      "ru-RU": "Период оплаты",
                      "kz-KZ": "Төлеу кезеңі",
                      "en-US": "Payment period"
                    },
                    "webPlaceholder": {
                      "ru-RU": "Период оплаты",
                      "kz-KZ": "Төлеу кезеңі",
                      "en-US": "Payment period"
                    },
                    "timeUnit": "month",
                    "dateFormat": "MMyyyy",
                    "minDateLimit": {
                      "timeUnit": "year",
                      "dynamicValue": -1,
                      "staticValue": "2017-12-31T23:59:59"
                    },
                    "maxDateLimit": {
                      "timeUnit": "year",
                      "dynamicValue": 0,
                      "staticValue": "2021-01-01T00:00:00"
                    }
                  }
                },
                {
                  "id": "0-1-3",
                  "parameterId": "contract",
                  "type": "inputField",
                  "options": {
                    "mobileDefaultConstraints": {
                      "left": 16,
                      "right": 16,
                      "top": 2,
                      "bottom": 2
                    },
                    "showUnderline": true,
                    "description": {
                      "ru-RU": "ИИН плательщика",
                      "kz-KZ": "Төлеушінің ЖСН",
                      "en-US": "IIN of the payer"
                    },
                    "webPlaceholder": {
                      "ru-RU": "ИИН плательщика",
                      "kz-KZ": "Төлеушінің ЖСН",
                      "en-US": "IIN of the payer"
                    },
                    "formatting": "number",
                    "autofill": "IIN",
                    "keyboard": "number",
                    "onResignPreCheck": {
                      "parameterId": "contract",
                      "checkCondition": {
                        "regex": "^[0-9]{12,12}$"
                      },
                      "errorActions": [
                        {
                          "id": "rpc-0.0",
                          "type": "highlightElem",
                          "options": {
                            "targetElem": "0-1-3",
                            "text": {
                              "ru-RU": "Введите корректный ИИН",
                              "kz-KZ": "Дұрыс ЖСН енгізіңіз",
                              "en-US": "Please enter IIN"
                            }
                          }
                        }
                      ]
                    }
                  }
                },
                {
                  "id": "0-1-4",
                  "parameterId": "worker_iin",
                  "type": "inputField",
                  "options": {
                    "mobileDefaultConstraints": {
                      "left": 16,
                      "right": 16,
                      "top": 2,
                      "bottom": 2
                    },
                    "showUnderline": false,
                    "description": {
                      "ru-RU": "ИИН работника",
                      "kz-KZ": "Қызметкердің ЖСН",
                      "en-US": "IIN of the employee"
                    },
                    "webPlaceholder": {
                      "ru-RU": "ИИН работника",
                      "kz-KZ": "Қызметкердің ЖСН",
                      "en-US": "IIN of the employee"
                    },
                    "formatting": "number",
                    "keyboard": "number",
                    "onResignPreCheck": {
                      "parameterId": "contract",
                      "checkCondition": {
                        "regex": "^[0-9]{12,12}$"
                      },
                      "errorActions": [
                        {
                          "id": "rpc-0.0",
                          "type": "highlightElem",
                          "options": {
                            "targetElem": "0-1-4",
                            "text": {
                              "ru-RU": "Введите корректный ИИН",
                              "kz-KZ": "Дұрыс ЖСН енгізіңіз",
                              "en-US": "Please enter IIN"
                            }
                          }
                        }
                      ]
                    }
                  }
                }
              ]
            },
            {
              "id": "0-2",
              "type": "roundedContainer",
              "options": {
                "webAlignment": "Vertical",
                "mobileDefaultConstraints": {
                  "left": 16,
                  "right": 16,
                  "top": 16,
                  "bottom": 0
                },
                "mobileBackgroundColor": "FFFFFF"
              },
              "elements": [
                {
                  "id": "0-2-0",
                  "parameterId": "amount",
                  "type": "inputField",
                  "options": {
                    "webAlignment": "Vertical",
                    "mobileDefaultConstraints": {
                      "left": 16,
                      "right": 16,
                      "top": 2,
                      "bottom": 2
                    },
                    "description": {
                      "ru-RU": "Сумма к оплате",
                      "kz-KZ": "Төлем сомасы",
                      "en-US": "Amount to pay"
                    },
                    "webPlaceholder": {
                      "ru-RU": "200",
                      "kz-KZ": "200",
                      "en-US": "200"
                    },
                    "formatting": "priceAmount",
                    "keyboard": "decimal",
                    "onResignPreCheck": {
                      "parameterId": "amount",
                      "checkCondition": {
                        "range": {
                          "min": "99",
                          "max": "1000000000",
                          "dataType": "double"
                        }
                      },
                      "errorActions": [
                        {
                          "id": "rpc-1.0",
                          "type": "highlightElem",
                          "options": {
                            "targetElem": "0-2-0",
                            "highlightParent": true,
                            "text": {
                              "ru-RU": "Введите сумму",
                              "kz-KZ": "Соманы енгізіңіз",
                              "en-US": "Please enter the amount"
                            }
                          }
                        }
                      ]
                    }
                  }
                }
              ]
            },
            {
              "id": "0-3",
              "type": "flat",
              "options": {
                "webAlignment": "Vertical",
                "mobileDefaultConstraints": {
                  "left": 16,
                  "right": 16,
                  "top": 16,
                  "bottom": 0
                }
              },
              "elements": [
                {
                  "id": "0-3-0",
                  "parameterId": "commission",
                  "actionId": "commissionAlert",
                  "type": "commission",
                  "options": {
                    "calculateFromParamId": "amount",
                    "webTextAligment": "left",
                    "mobileTextAlignment": "center",
                    "mobileDefaultConstraints": {
                      "left": 0,
                      "right": 0,
                      "top": 0,
                      "bottom": 0
                    },
                    "description": {
                      "ru-RU": "Комиссия: {0} ₸",
                      "kz-KZ": "Комиссия: {0} ₸",
                      "en-US": "Commission: {0} ₸"
                    },
                    "highLightedText": [
                      {
                        "ru-RU": "{0} ₸",
                        "kz-KZ": "{0} ₸",
                        "en-US": "{0} ₸"
                      }
                    ],
                    "dependencies": [
                      "commission"
                    ]
                  }
                }
              ]
            },
            {
              "id": "0-5",
              "type": "flat",
              "options": {
                "webAlignment": "Vertical",
                "mobileDefaultConstraints": {
                  "left": 0,
                  "right": 0,
                  "top": 16,
                  "bottom": 80
                }
              },
              "elements": [
                {
                  "id": "0-5-0",
                  "type": "submit",
                  "actionId": "checkRequest",
                  "parameterId": "overallAmount",
                  "options": {
                    "webTextAligment": "center",
                    "mobileDefaultConstraints": {
                      "left": 16,
                      "right": 16,
                      "top": 16,
                      "bottom": 0
                    },
                    "description": {
                      "ru-RU": "Проверить",
                      "kz-KZ": "Тексеру",
                      "en-US": "Check"
                    },
                    "dependencies": [
                      "overallAmount"
                    ],
                    "sumFromParams": [
                      "amount",
                      "commission"
                    ]
                  }
                }
              ]
            }
          ]
        }
      ]
    },
    {
      "id": "execPage",
      "type": "execPage",
      "options": {
        "actionId": "exec",
        "displayInfo": {
          "card": "card",
          "commission": "commission",
          "amount": "amount",
          "addedFields": [
            {
              "value": "{0}",
              "dependencies": [
                "workerName"
              ],
              "name": {
                "ru-RU": "ФИО работника",
                "kz-KZ": "Қызметкердің ТАӘ",
                "en-US": "Name of the employee"
              }
            }
          ]
        }
      },
      "containers": []
    }
  ],
  "parameters": [
    {
      "id": "contract",
      "dataType": "string"
    },
    {
      "id": "worker_iin",
      "dataType": "string"
    },
    {
      "id": "period",
      "dataType": "string"
    },
    {
      "id": "payerType",
      "dataType": "string",
      "value": "1",
      "initialValue": "1"
    },
    {
      "id": "knp",
      "dataType": "string",
      "value": "121",
      "initialValue": "121"
    },
    {
      "id": "amount",
      "dataType": "double"
    },
    {
      "id": "commission",
      "dataType": "double"
    },
    {
      "id": "card",
      "dataType": "cardData"
    },
    {
      "id": "workerName",
      "dataType": "string"
    },
    {
      "id": "overallAmount",
      "dataType": "double"
    },
    {
      "id": "errorDesc",
      "dataType": "string"
    }
  ],
  "actions": [
    {
      "id": "cleanContract",
      "type": "setParam",
      "options": {
        "dataType": "string",
        "value": null,
        "parameterId": "contract"
      }
    },
    {
      "id": "hideAllErrors",
      "type": "hideAllErrors",
      "options": {}
    },
    {
      "id": "commissionAlert",
      "type": "alert",
      "options": {
        "text": {
          "ru-RU": "Комиссия Homebank 0 ₸ \nКомиссия агрегатора {0} ₸",
          "kz-KZ": "Homebank комиссиясы 0 ₸ \nАгрегатордың комиссиясы {0} ₸",
          "en-US": "Homebank Commission 0 ₸ \nAggregator commission {0} ₸"
        },
        "title": {
          "ru-RU": "Комиссия",
          "kz-KZ": "Комиссия",
          "en-US": "Commission"
        },
        "dependencies": [
          "commission"
        ]
      }
    },
    {
      "id": "checkRequest",
      "type": "checkRequest",
      "options": {
        "parameters": [
          {
            "id": "contract",
            "valueFromParam": "contract"
          },
          {
            "id": "payerIin",
            "valueFromParam": "contract"
          },
          {
            "id": "worker_iin",
            "valueFromParam": "worker_iin"
          },
          {
            "id": "period",
            "valueFromParam": "period"
          },
          {
            "id": "payerType",
            "valueFromParam": "payerType"
          },
          {
            "id": "knp",
            "valueFromParam": "knp"
          },
          {
            "id": "amount",
            "valueFromParam": "amount"
          }
        ],
        "dependencies": [],
        "preChecks": [
          {
            "parameterId": "card",
            "errorActions": [
              {
                "id": "pc-2.0",
                "type": "setParam",
                "options": {
                  "dataType": "double",
                  "value": null,
                  "parameterId": "overallAmount"
                }
              },
              {
                "id": "pc-2.1",
                "type": "highlightElem",
                "options": {
                  "targetElem": "0-0-0",
                  "highlightParent": true
                }
              },
              {
                "id": "pc-2.2",
                "type": "becomeFirstResponder",
                "options": {
                  "targetElem": "0-0-0"
                }
              }
            ]
          },
          {
            "parameterId": "knp",
            "errorActions": [
              {
                "id": "pc-0.01",
                "type": "setParam",
                "options": {
                  "dataType": "double",
                  "value": null,
                  "parameterId": "overallAmount"
                }
              },
              {
                "id": "pc-0.11",
                "type": "highlightElem",
                "options": {
                  "targetElem": "0-1-0",
                  "text": {
                    "ru-RU": "Выберите тип",
                    "kz-KZ": "Түрін таңдаңыз",
                    "en-US": "Select type"
                  }
                }
              },
              {
                "id": "pc-0.21",
                "type": "becomeFirstResponder",
                "options": {
                  "targetElem": "0-1-0"
                }
              },
              {
                "id": "pc-0-31",
                "type": "taptic",
                "options": {
                  "tapType": "warning"
                }
              }
            ]
          },
          {
            "parameterId": "period",
            "errorActions": [
              {
                "id": "pc-0.12",
                "type": "setParam",
                "options": {
                  "dataType": "double",
                  "value": null,
                  "parameterId": "overallAmount"
                }
              },
              {
                "id": "pc-0.11",
                "type": "highlightElem",
                "options": {
                  "targetElem": "0-1-2",
                  "text": {
                    "ru-RU": "Выберите дату",
                    "kz-KZ": "Уақыт таңдаңыз",
                    "en-US": "Select date"
                  }
                }
              },
              {
                "id": "pc-0.21",
                "type": "becomeFirstResponder",
                "options": {
                  "targetElem": "0-1-2"
                }
              },
              {
                "id": "pc-0-31",
                "type": "taptic",
                "options": {
                  "tapType": "warning"
                }
              }
            ]
          },
          {
            "parameterId": "contract",
            "checkCondition": {
              "regex": "^[0-9]{12,12}$"
            },
            "errorActions": [
              {
                "id": "pc-0.0",
                "type": "setParam",
                "options": {
                  "dataType": "double",
                  "value": null,
                  "parameterId": "overallAmount"
                }
              },
              {
                "id": "pc-0.1",
                "type": "highlightElem",
                "options": {
                  "targetElem": "0-1-3",
                  "text": {
                    "ru-RU": "Введите ИИН",
                    "kz-KZ": "ЖСН енгізіңіз",
                    "en-US": "Enter IIN"
                  }
                }
              },
              {
                "id": "pc-0.2",
                "type": "becomeFirstResponder",
                "options": {
                  "targetElem": "0-1-3"
                }
              },
              {
                "id": "pc-0-3",
                "type": "taptic",
                "options": {
                  "tapType": "warning"
                }
              }
            ]
          },
          {
            "parameterId": "worker_iin",
            "checkCondition": {
              "regex": "^[0-9]{12,12}$"
            },
            "errorActions": [
              {
                "id": "pc-0.0",
                "type": "setParam",
                "options": {
                  "dataType": "double",
                  "value": null,
                  "parameterId": "overallAmount"
                }
              },
              {
                "id": "pc-0.1",
                "type": "highlightElem",
                "options": {
                  "targetElem": "0-1-4",
                  "text": {
                    "ru-RU": "Введите ИИН",
                    "kz-KZ": "ЖСН енгізіңіз",
                    "en-US": "Enter IIN"
                  }
                }
              },
              {
                "id": "pc-0.2",
                "type": "becomeFirstResponder",
                "options": {
                  "targetElem": "0-1-3"
                }
              },
              {
                "id": "pc-0-3",
                "type": "taptic",
                "options": {
                  "tapType": "warning"
                }
              }
            ]
          },
          {
            "parameterId": "amount",
            "checkCondition": {
              "range": {
                "min": "99",
                "max": "1000000000",
                "dataType": "double"
              }
            },
            "errorActions": [
              {
                "id": "pc-1.0",
                "type": "setParam",
                "options": {
                  "dataType": "double",
                  "value": null,
                  "parameterId": "overallAmount"
                }
              },
              {
                "id": "pc-1.1",
                "type": "highlightElem",
                "options": {
                  "targetElem": "0-2-0",
                  "highlightParent": true,
                  "text": {
                    "ru-RU": "Введите корректную сумму",
                    "kz-KZ": "Дұрыс соманы енгізіңіз",
                    "en-US": "Please enter a correct amount"
                  }
                }
              },
              {
                "id": "pc-1.2",
                "type": "becomeFirstResponder",
                "options": {
                  "targetElem": "0-2-0"
                }
              }
            ]
          }
        ],
        "errorResponseActions": [
          {
            "code": "-214",
            "responseActions": [
              {
                "id": "era-0.0",
                "type": "setParam",
                "options": {
                  "dataType": "double",
                  "value": null,
                  "parameterId": "overallAmount"
                }
              },
              {
                "id": "era-0.1",
                "type": "highlightElem",
                "options": {
                  "text": {
                    "ru-RU": "Данный ИИН не найден",
                    "kz-KZ": "Бұл ЖСН табылған жоқ",
                    "en-US": "This IIN was not found"
                  },
                  "targetElem": "0-1-3"
                }
              },
              {
                "id": "era-0.2",
                "type": "becomeFirstResponder",
                "options": {
                  "targetElem": "0-1-3"
                }
              },
              {
                "id": "era-0.3",
                "type": "taptic",
                "options": {
                  "tapType": "warning"
                }
              }
            ]
          },
          {
            "code": "other",
            "responseActions": [
              {
                "id": "era-1.0",
                "type": "setParam",
                "options": {
                  "dataType": "double",
                  "value": null,
                  "parameterId": "overallAmount"
                }
              },
              {
                "id": "era-1.1",
                "type": "setParam",
                "options": {
                  "dataType": "string",
                  "valueFrom": [
                    {
                      "id": "resultDescription",
                      "dataType": "string"
                    }
                  ],
                  "parameterId": "errorDesc"
                }
              },
              {
                "id": "era-1.2",
                "type": "alert",
                "options": {
                  "text": {
                    "ru-RU": "{0}",
                    "kz-KZ": "{0}",
                    "en-US": "{0}"
                  },
                  "title": {
                    "ru-RU": "Ошибка",
                    "kz-KZ": "Қателік",
                    "en-US": "Error"
                  },
                  "dependencies": [
                    "errorDesc"
                  ]
                }
              },
              {
                "id": "era-1.3",
                "type": "taptic",
                "options": {
                  "tapType": "warning"
                }
              }
            ]
          }
        ],
        "successResponseActions": [
          {
            "id": "sra-0.0",
            "type": "setParam",
            "options": {
              "dataType": "string",
              "valueFrom": [
                {
                  "id": "employeeName",
                  "dataType": "string"
                }
              ],
              "parameterId": "workerName",
              "override": false
            }
          },
          {
            "id": "sra-0.1",
            "type": "setParam",
            "options": {
              "dataType": "double",
              "value": null,
              "parameterId": "overallAmount"
            }
          },
          {
            "id": "sra-0.2",
            "type": "showPage",
            "options": {
              "pageId": "execPage"
            }
          }
        ]
      }
    },
    {
      "id": "exec",
      "type": "execRequest",
      "options": {
        "chosenCardParam": "card",
        "parameters": [
          {
            "id": "amount",
            "valueFromParam": "amount"
          }
        ],
        "errorResponseActions": [
          {
            "code": "other",
            "responseActions": [
              {
                "id": "era-2.0",
                "type": "setParam",
                "options": {
                  "dataType": "string",
                  "valueFrom": [
                    {
                      "id": "resultDescription",
                      "dataType": "string"
                    }
                  ],
                  "parameterId": "errorDesc"
                }
              },
              {
                "id": "era-2.1",
                "type": "alert",
                "options": {
                  "text": {
                    "ru-RU": "{0}",
                    "kz-KZ": "{0}",
                    "en-US": "{0}"
                  },
                  "title": {
                    "ru-RU": "Ошибка",
                    "kz-KZ": "Қателік",
                    "en-US": "Error"
                  },
                  "dependencies": [
                    "errorDesc"
                  ]
                }
              },
              {
                "id": "era-2.2",
                "type": "taptic",
                "options": {
                  "tapType": "warning"
                }
              }
            ]
          }
        ],
        "successResponseActions": [
          {
            "id": "sra-1.0",
            "type": "finishTemplate",
            "options": {
              "title": {
                "ru-RU": "Спасибо",
                "kz-KZ": "Рақмет",
                "en-US": "Thanks"
              },
              "text": {
                "ru-RU": "Ваш платеж успешно отправлен в обработку!",
                "kz-KZ": "Сіздің төлеміңіз сәтті өңдеуге жіберілді!",
                "en-US": "Your payment has been successfully sent for processing!"
              }
            }
          }
        ]
      }
    }
  ]
}