{
  "id": "jadeDynasty",
  "options": {
    "subTitle": {
      "ru-RU": "Оплата услуг сервиса",
      "kz-KZ": "Сервис қызметтеріне ақы төлеу",
      "en-US": "Pyament for the services provided"
    },
    "webStyles": [
      {
        "key": "background-image",
        "value": "linear-gradient(103deg,#10a9ff,#005a8b)"
      }
    ],
    "startingPageId": "initialPage"
  },
  "pages": [
    {
      "id": "initialPage",
      "type": "normal",
      "options": {},
      "containers": [
        {
          "id": "0",
          "type": "flat",
          "options": {
            "webAlignment": "Vertical",
            "mobileDefaultConstraints": {
              "left": 0,
              "right": 0,
              "top": 0,
              "bottom": 0
            }
          },
          "blocks": [
            {
              "id": "0-0",
              "type": "roundedContainer",
              "options": {
                "webAlignment": "Vertical",
                "mobileDefaultConstraints": {
                  "left": 16,
                  "right": 16,
                  "top": 16,
                  "bottom": 0
                },
                "mobileBackgroundColor": "FFFFFF"
              },
              "elements": [
                {
                  "id": "0-0-0",
                  "parameterId": "contract",
                  "type": "inputField",
                  "options": {
                    "mobileDefaultConstraints": {
                      "left": 16,
                      "right": 16,
                      "top": 2,
                      "bottom": 2
                    },
                    "description": {
                      "ru-RU": "Номер аккаунта",
                      "kz-KZ": "Аккаунт нөмірі",
                      "en-US": "Account number"
                    },
                    "webPlaceholder": {
                      "ru-RU": "Введите номер аккаунта",
                      "kz-KZ": "Өрісті толтырыңыз",
                      "en-US": "Enter an account number"
                    },
                    "formatting": "none",
                    "keyboard": "email",
                    "onResignPreCheck": {
                      "parameterId": "contract",
                      "checkCondition": {
                        "regex": ".{2,}$"
                      },
                      "errorActions": [
                        {
                          "id": "rpc-0.0",
                          "type": "highlightElem",
                          "options": {
                            "targetElem": "0-0-0",
                            "highlightParent": true,
                            "text": {
                              "ru-RU": "Введите корректный номер аккаунта",
                              "kz-KZ": "Шоттың нөмірін енгізіңіз",
                              "en-US": "Please enter an account number"
                            }
                          }
                        }
                      ]
                    }
                  }
                }
              ]
            },
            {
              "id": "0-1",
              "type": "roundedContainer",
              "options": {
                "webAlignment": "Vertical",
                "mobileDefaultConstraints": {
                  "left": 16,
                  "right": 16,
                  "top": 16,
                  "bottom": 0
                },
                "mobileBackgroundColor": "FFFFFF"
              },
              "elements": [
                {
                  "id": "0-1-0",
                  "parameterId": "amount",
                  "type": "inputField",
                  "options": {
                    "webAlignment": "Vertical",
                    "mobileDefaultConstraints": {
                      "left": 16,
                      "right": 16,
                      "top": 2,
                      "bottom": 2
                    },
                    "description": {
                      "ru-RU": "Сумма к оплате",
                      "kz-KZ": "Сумма к оплате",
                      "en-US": "Amount to pay"
                    },
                    "webPlaceholder": {
                      "ru-RU": "200",
                      "kz-KZ": "200",
                      "en-US": "200"
                    },
                    "formatting": "priceAmount",
                    "keyboard": "decimal",
                    "onResignPreCheck": {
                      "parameterId": "amount",
                      "checkCondition": {
                        "range": {
                           "min": "9",
                           "max": "69000",
                           "dataType": "double"
                        }
                      },
                      "errorActions": [
                        {
                          "id": "rpc-1.0",
                          "type": "highlightElem",
                          "options": {
                            "targetElem": "0-1-0",
                            "highlightParent": true,
                            "text": {
                              "ru-RU": "Введите корректную сумму, минимум 10 тг.",
                              "kz-KZ": "Соманы енгізіңіз, минимум 10 тг.",
                              "en-US": "Please enter the amount, min 10 тг."
                            }
                          }
                        }
                      ]
                    }
                  }
                }
              ]
            },
            {
              "id": "0-2",
              "type": "flat",
              "options": {
                "webAlignment": "Vertical",
                "mobileDefaultConstraints": {
                  "left": 16,
                  "right": 16,
                  "top": 16,
                  "bottom": 0
                }
              },
              "elements": [
                {
                  "id": "0-2-0",
                  "parameterId": "commission",
                  "actionId": "commissionAlert",
                  "type": "commission",
                  "options": {
                    "calculateFromParamId": "amount",
                    "webTextAligment": "left",
                    "mobileTextAlignment": "center",
                    "mobileDefaultConstraints": {
                      "left": 0,
                      "right": 0,
                      "top": 0,
                      "bottom": 0
                    },
                    "description": {
                      "ru-RU": "Комиссия: {0} ₸",
                      "kz-KZ": "Комиссия: {0} ₸",
                      "en-US": "commission: {0} ₸"
                    },
                    "highLightedText": [{
                      "ru-RU": "{0} ₸",
                      "kz-KZ": "{0} ₸",
                      "en-US": "{0} ₸"
                    }],
                    "dependencies": [
                      "commission"
                    ]
                  }
                }
              ]
            },
            {
              "id": "0-3",
              "type": "roundedContainer",
              "options": {
                "webAlignment": "Vertical",
                "mobileDefaultConstraints": {
                  "left": 16,
                  "right": 16,
                  "top": 16,
                  "bottom": 0
                }
              },
              "elements": [
                {
                  "id": "0-3-0",
                  "parameterId": "card",
                  "type": "paymentSelector",
                  "options": {
                    
                    "mobileDefaultConstraints": {
                      "left": 16,
                      "right": 16,
                      "top": 2,
                      "bottom": 2
                    },
                    "label": {
                      "ru-RU": "Выберите способ оплаты",
                      "kz-KZ": "Төлем әдісін таңдаңыз",
                      "en-US": "Choose payment method"
                    }
                  }
                }
              ]
            },
            {
              "id": "0-4",
              "type": "flat",
              "options": {
                "webAlignment": "Vertical",
                "mobileDefaultConstraints": {
                  "left": 0,
                  "right": 0,
                  "top": 16,
                  "bottom": 80
                }
              },
              "elements": [
                {
                  "id": "0-4-0",
                  "type": "submit",
                  "actionId": "checkRequest",
                  "parameterId": "overallAmount",
                  "options": {
                    "webTextAligment": "center",
                    "mobileDefaultConstraints": {
                      "left": 16,
                      "right": 16,
                      "top": 16,
                      "bottom": 0
                    },
                    "description": {
                      "ru-RU": "Оплатить {0} ₸",
                      "kz-KZ": "Оплатить {0} ₸",
                      "en-US": "Confirm {0} ₸"
                    },
                    "dependencies": [
                      "overallAmount"
                    ],
                    "sumFromParams": [
                      "amount",
                      "commission"
                    ]
                  }
                }
              ]
            }
          ]
        }
      ]
    },
    {
      "id": "execPage",
      "type": "execPage",
      "options": {
        "actionId": "exec",
        "displayInfo": {
          "card": "card",
          "commission": "commission",
          "amount": "amount"
        }
      },
      "containers": []
    }
  ],
  "parameters": [
    {
      "id": "contract",
      "dataType": "string"
    },
    {
      "id": "amount",
      "dataType": "double"
    },
    {
      "id": "commission",
      "dataType": "double"
    },
    {
      "id": "card",
      "dataType": "cardData"
    },
    {
      "id": "overallAmount",
      "dataType": "double"
    },
    {
      "id": "errorDesc",
      "dataType": "string"
    }
  ],
  "actions": [
    {
      "id": "hideAllErrors",
      "type": "hideAllErrors",
      "options": {}
    },
    {
      "id": "commissionAlert",
      "type": "alert",
      "options": {
        "text": {
          "ru-RU": "Комиссия Homebank 0 ₸ \nКомиссия агрегатора {0} ₸",
          "kz-KZ": "Homebank комиссиясы 0 ₸ \nАгрегатордың комиссиясы {0} ₸",
          "en-US": "Homebank Commission 0 ₸ \nAggregator commission {0} ₸"
        },
        "title": {
          "ru-RU": "Комиссия",
          "kz-KZ": "Комиссия",
          "en-US": "Commission"
        },
        "dependencies": [
          "commission"
        ]
      }
    },
    {
      "id": "checkRequest",
      "type": "checkRequest",
      "options": {
        "parameters": [
          {
            "id": "contract",
            "valueFromParam": "contract"
          },
          {
            "id": "amount",
            "valueFromParam": "amount"
          }
        ],
        "preChecks": [
          {
            "parameterId": "contract",
            "checkCondition": {
              "regex": ".{2,}$"
            },
            "errorActions": [
              {
                "id": "pc-0.0",
                "type": "setParam",
                "options": {
                  "dataType": "double",
                  "value": null,
                  "parameterId": "overallAmount"
                }
              },
              {
                "id": "pc-0.1",
                "type": "highlightElem",
                "options": {
                  "targetElem": "0-0-0",
                  "highlightParent": true,
                  "text": {
                    "ru-RU": "Введите корректный номер аккаунта",
                    "kz-KZ": "Шоттың нөмірін дұрыс енгізіңіз",
                    "en-US": "Please enter a correct number"
                  }
                }
              },
              {
                "id": "pc-0.2",
                "type": "becomeFirstResponder",
                "options": {
                  "targetElem": "0-0-0"
                }
              },
              {
                "id": "pc-0-3",
                "type": "taptic",
                "options": {
                  "tapType": "warning"
                }
              }
            ]
          },
          {
            "parameterId": "amount",
            "checkCondition": {
              "range": {
                "min": "9",
                "max": "69000",
                "dataType": "double"
              }
            },
            "errorActions": [
              {
                "id": "pc-1.0",
                "type": "setParam",
                "options": {
                  "dataType": "double",
                  "value": null,
                  "parameterId": "overallAmount"
                }
              },
              {
                "id": "pc-1.1",
                "type": "highlightElem",
                "options": {
                  "targetElem": "0-1-0",
                  "highlightParent": true,
                  "text": {
                    "ru-RU": "Введите корректную сумму, минимум 10 тг.",
                    "kz-KZ": "Дұрыс мөлшерді енгізіңіз, минимум 10 тг.",
                    "en-US": "Please enter a correct amount, min 10 тг."
                  }
                }
              },
              {
                "id": "pc-1.2",
                "type": "becomeFirstResponder",
                "options": {
                  "targetElem": "0-1-0"
                }
              }
            ]
          },
          {
            "parameterId": "card",
            "errorActions": [
              {
                "id": "pc-2.0",
                "type": "setParam",
                "options": {
                  "dataType": "double",
                  "value": null,
                  "parameterId": "overallAmount"
                }
              },
              {
                "id": "pc-2.1",
                "type": "highlightElem",
                "options": {
                  "targetElem": "0-3-0",
                  "highlightParent": true
                }
              },
              {
                "id": "pc-2.2",
                "type": "becomeFirstResponder",
                "options": {
                  "targetElem": "0-3-0"
                }
              }
            ]
          }
        ],
        "errorResponseActions": [
          {
            "code": "-214",
            "responseActions": [
              {
                "id": "era-0.0",
                "type": "setParam",
                "options": {
                  "dataType": "double",
                  "value": null,
                  "parameterId": "overallAmount"
                }
              },
              {
                "id": "era-0.1",
                "type": "highlightElem",
                "options": {
                  "text": {
                    "ru-RU": "Данный абонент не найден",
                    "kz-KZ": "Бұл шот нөмірі табылған жоқ",
                    "en-US": "This account was not found"
                  },
                  "highlightParent": true,
                  "targetElem": "0-0-0"
                }
              },
              {
                "id": "era-0.2",
                "type": "becomeFirstResponder",
                "options": {
                  "targetElem": "0-0-0"
                }
              },
              {
                "id": "era-0.3",
                "type": "taptic",
                "options": {
                  "tapType": "warning"
                }
              }
            ]
          },
          {
            "code": "other",
            "responseActions": [
              {
                "id": "era-1.0",
                "type": "setParam",
                "options": {
                  "dataType": "double",
                  "value": null,
                  "parameterId": "overallAmount"
                }
              },
              {
                "id": "era-1.1",
                "type": "setParam",
                "options": {
                  "dataType": "string",
                  "valueFrom": [
                    {
                      "id": "resultDescription",
                      "dataType": "string"
                    }
                  ],
                  "parameterId": "errorDesc"
                }
              },
              {
                "id": "era-1.2",
                "type": "alert",
                "options": {
                  "text": {
                    "ru-RU": "{0}",
                    "kz-KZ": "{0}",
                    "en-US": "{0}"
                  },
                  "title": {
                    "ru-RU": "Ошибка",
                    "kz-KZ": "Қателік",
                    "en-US": "Error"
                  },
                  "dependencies": [
                    "errorDesc"
                  ]
                }
              },
              {
                "id": "era-1.3",
                "type": "taptic",
                "options": {
                  "tapType": "warning"
                }
              }
            ]
          }
        ],
        "successResponseActions": [
          {
            "id": "sra-0.0",
            "type": "setParam",
            "options": {
              "dataType": "double",
              "valueFrom": [
                {
                  "id": "balance",
                  "dataType": "double"
                }
              ],
              "parameterId": "amount",
              "override": false
            }
          },
          {
            "id": "sra-0.1",
            "type": "setParam",
            "options": {
              "dataType": "double",
              "value": null,
              "parameterId": "overallAmount"
            }
          },
          {
            "id": "sra-0.2",
            "type": "showPage",
            "options": {
              "pageId": "execPage"
            }
          }
        ]
      }
    },
    {
      "id": "exec",
      "type": "execRequest",
      "options": {
        "chosenCardParam": "card",
        "parameters": [
          {
            "id": "amount",
            "valueFromParam": "amount"
          }
        ],
        "errorResponseActions": [
          {
            "code": "other",
            "responseActions": [
              {
                "id": "era-2.0",
                "type": "setParam",
                "options": {
                  "dataType": "string",
                  "valueFrom": [
                    {
                      "id": "resultDescription",
                      "dataType": "string"
                    }
                  ],
                  "parameterId": "errorDesc"
                }
              },
              {
                "id": "era-2.1",
                "type": "alert",
                "options": {
                  "text": {
                    "ru-RU": "{0}",
                    "kz-KZ": "{0}",
                    "en-US": "{0}"
                  },
                  "title": {
                    "ru-RU": "Ошибка",
                    "kz-KZ": "Қате",
                    "en-US": "Error"
                  },
                  "dependencies": [
                    "errorDesc"
                  ]
                }
              },
              {
                "id": "era-2.2",
                "type": "taptic",
                "options": {
                  "tapType": "warning"
                }
              }
            ]
          }
        ],
        "successResponseActions": [
          {
            "id": "sra-1.0",
            "type": "finishTemplate",
            "options": {
              "title": {
                "ru-RU": "Спасибо",
                "kz-KZ": "Рахмет",
                "en-US": "Thanks"
              },
              "text": {
                "ru-RU": "Ваш платеж успешно отправлен в обработку!",
                "kz-KZ": "Сіздің төлеміңіз сәтті өңдеуге жіберілді!",
                "en-US": "Your payment has been successfully sent for processing!"
              }
            }
          }
        ]
      }
    }
  ]
}  