{
  "id": "almatyParkingMinute",
  "options": {
    "subTitle": {
      "ru-RU": "Оплата услуг сервиса",
      "kz-KZ": "Сервис қызметтеріне ақы төлеу",
      "en-US": "Payment for the services provided"
    },
    "webStyles": [
      {
        "key": "background-image",
        "value": "linear-gradient(103deg,#22C3B1,#6BB0E2)"
      }
    ],
    "startingPageId": "initialPage"
  },
  "pages": [
    {
      "id": "initialPage",
      "type": "normal",
      "options": {},
      "containers": [
        {
          "id": "0",
          "type": "flat",
          "options": {
            "webAlignment": "Vertical",
            "mobileDefaultConstraints": {
              "left": 0,
              "right": 0,
              "top": 0,
              "bottom": 0
            }
          },
          "blocks": [
            {
              "id": "0-0",
              "type": "roundedContainer",
              "options": {
                "webAlignment": "Vertical",
                "mobileDefaultConstraints": {
                  "left": 16,
                  "right": 16,
                  "top": 16,
                  "bottom": 0
                }
              },
              "elements": [
                {
                  "id": "0-0-0",
                  "parameterId": "contract",
                  "type": "inputField",
                  "options": {
                    "showHistoricOptions": true,
                    "showUnderline": true,
                    "mobileDefaultConstraints": {
                      "left": 16,
                      "right": 16,
                      "top": 2,
                      "bottom": 2
                    },
                    "description": {
                      "ru-RU": "Номер авто",
                      "kz-KZ": "Көлік нөмірі",
                      "en-US": "Car number"
                    },
                    "webPlaceholder": {
                      "ru-RU": "Введите Номер авто",
                      "kz-KZ": "Номер авто толтырыңыз",
                      "en-US": "Enter an Номер авто"
                    },
                    "formatting": "normal",
                    "keyboard": "normal",
                    "onResignPreCheck": {
                      "parameterId": "contract",
                      "checkCondition": {
                        "regex": ".{5,}$"
                      },
                      "errorActions": [
                        {
                          "id": "rpc-0.0",
                          "type": "highlightElem",
                          "options": {
                            "targetElem": "0-0-0",
                            "highlightParent": false,
                            "text": {
                              "ru-RU": "Введите корректный Номер авто",
                              "kz-KZ": "Жарамды көлік нөмірін енгізіңіз",
                              "en-US": "Enter the correct Auto Number"
                            }
                          }
                        }
                      ]
                    }
                  }
                },
                {
                  "id": "0-0-1",
                  "parameterId": "parkingZone",
                  "type": "inputField",
                  "options": {
                    "showHistoricOptions": true,
                    "showUnderline": true,
                    "mobileDefaultConstraints": {
                      "left": 16,
                      "right": 16,
                      "top": 2,
                      "bottom": 2
                    },
                    "description": {
                      "ru-RU": "Номер парковки",
                      "kz-KZ": "Тұрақ нөмірі",
                      "en-US": "Parking number"
                    },
                    "webPlaceholder": {
                      "ru-RU": "Номер парковки",
                      "kz-KZ": "Тұрақ нөмірі",
                      "en-US": "Parking number"
                    },
                    "formatting": "number",
                    "keyboard": "number",
                    "onResignPreCheck": {
                      "parameterId": "parkingZone",
                      "checkCondition": {
                        "regex": ".{2,}$"
                      },
                      "errorActions": [
                        {
                          "id": "rpc-0.0",
                          "type": "highlightElem",
                          "options": {
                            "targetElem": "0-0-1",
                            "highlightParent": false,
                            "text": {
                              "ru-RU": "Введите корректный Номер парковки",
                              "kz-KZ": "Жарамды тұрақ нөмірін енгізіңіз",
                              "en-US": "Please enter a valid parking number"
                            }
                          }
                        }
                      ]
                    }
                  }
                },
                {
                  "id": "0-0-2",
                  "parameterId": "parkingTimeInMinute",
                  "type": "inputField",
                  "options": {
                    "showUnderline": true,
                    "mobileDefaultConstraints": {
                      "left": 16,
                      "right": 16,
                      "top": 2,
                      "bottom": 2
                    },
                    "description": {
                      "ru-RU": "Длительность парковки (мин)",
                      "kz-KZ": "Тұрақ ұзақтығы (мин)",
                      "en-US": "Parking duration (min)"
                    },
                    "webPlaceholder": {
                      "ru-RU": "Длительность парковки (мин)",
                      "kz-KZ": "Тұрақ ұзақтығы (мин)",
                      "en-US": "Parking duration (min)"
                    },
                    "formatting": "number",
                    "keyboard": "number",
                    "onResignPreCheck": {
                      "parameterId": "parkingTimeInMinute",
                      "checkCondition": {
                        "regex": ".{1,}$"
                      },
                      "errorActions": [
                        {
                          "id": "rpc-0.0",
                          "type": "highlightElem",
                          "options": {
                            "targetElem": "0-0-2",
                            "highlightParent": false,
                            "text": {
                              "ru-RU": "Введите корректный Номер парковки",
                              "kz-KZ": "Жарамды тұрақ нөмірін енгізіңіз",
                              "en-US": "Please enter a valid parking number"
                            }
                          }
                        }
                      ]
                    }
                  }
                },
                {
                  "id": "0-0-3",
                  "parameterId": "parkingTimeInMinute",
                  "type": "scrollableSelect",
                  "options": {
                    "mobileDefaultConstraints": {
                      "left": 16,
                      "right": 16,
                      "top": 12,
                      "bottom": 16
                    },
                    "mobileBackgroundColor" : "FFFFFF",
                    "onValueChangeActions": [],
                    "selectionData": [
                      {
                        "id": "15",
                        "text": {
                          "ru-RU": "15 мин",
                          "kz-KZ": "15 мин",
                          "en-US": "15 min"
                        }
                      },
                      {
                        "id": "30",
                        "text": {
                          "ru-RU": "30 мин",
                          "kz-KZ": "30 мин",
                          "en-US": "30 min"
                        }
                      },
                      {
                        "id": "45",
                        "text": {
                          "ru-RU": "45 мин",
                          "kz-KZ": "45 мин",
                          "en-US": "45 min"
                        }
                      },
                      {
                        "id": "60",
                        "text": {
                          "ru-RU": "1 час",
                          "kz-KZ": "1 саг",
                          "en-US": "1 hour"
                        }
                      },
                      {
                        "id": "120",
                        "text": {
                          "ru-RU": "2 часа",
                          "kz-KZ": "2 саг",
                          "en-US": "2 hour"
                        }
                      },
                      {
                        "id": "180",
                        "text": {
                          "ru-RU": "3 часа",
                          "kz-KZ": "3 саг",
                          "en-US": "3 hour"
                        }
                      },
                      {
                        "id": "360",
                        "text": {
                          "ru-RU": "6 часов",
                          "kz-KZ": "6 сагат",
                          "en-US": "6 hours"
                        }
                      }
                    ]
                  }
                }
              ]
            },
            {
              "id": "0-1",
              "type": "flat",
              "options": {
                "webAlignment": "Vertical",
                "mobileDefaultConstraints": {
                  "left": 16,
                  "right": 16,
                  "top": 16,
                  "bottom": 0
                },
                "mobileBackgroundColor" : "F1F2F6",
                "radius" : 12
              },
              "elements": [
                {
                  "id": "0-1-0",
                  "type": "label",
                  "options": {
                    "webTextAlignment": "left",
                    "mobileTextAlignment": "left",
                    "mobileDefaultConstraints": {
                      "left": 16,
                      "right": 16,
                      "top": 16,
                      "bottom": 0
                    },
                    "description": {
                      "ru-RU": "Подсказка",
                      "kz-KZ": "Еске салу",
                      "en-US": "Reminder"
                    },
                    "icon": "template_label_warning",
                    "fontSize": 14,
                    "fontStyle" : "bold",
                    "fontColor" : "071222"
                  }
                },
                {
                  "id": "0-1-1",
                  "type": "label",
                  "options": {
                    "webTextAlignment": "left",
                    "mobileTextAlignment": "left",
                    "mobileDefaultConstraints": {
                      "left": 16,
                      "right": 16,
                      "top": 8,
                      "bottom": 16
                    },
                    "description": {
                      "ru-RU": "Оплачивайте парковку сразу, чтобы не получить штраф. Первые 15 минут стоянки бесплатно.",
                      "kz-KZ": "Сізге айыппұл салынбауы үшін тұрақ үшін дереу төлеңіз. Автотұрақтың алғашқы 15 минуты тегін.",
                      "en-US": "Pay for parking right away so you don't get fined. The first 15 minutes of parking is free."
                    },
                    "fontSize": 14,
                    "fontColor" : "566681"
                  }
                }
              ]
            },
            {
              "id": "0-2",
              "type": "flat",
              "options": {
                "webAlignment": "Vertical",
                "mobileDefaultConstraints": {
                  "left": 0,
                  "right": 0,
                  "top": 16,
                  "bottom": 80
                }
              },
              "elements": [
                {
                  "id": "0-2-0",
                  "type": "submit",
                  "parameterId": "continue",
                  "actionId": "checkContract",
                  "options": {
                    "webTextAligment": "center",
                    "mobileDefaultConstraints": {
                      "left": 16,
                      "right": 16,
                      "top": 16,
                      "bottom": 0
                    },
                    "description": {
                      "ru-RU": "Проверить",
                      "kz-KZ": "Тексеру",
                      "en-US": "Check"
                    }
                  }
                }
              ]
            }
          ]
        }
      ]
    },
    {
      "id": "secondPage",
      "type": "normal",
      "options": {},
      "containers": [
        {
          "id": "1",
          "type": "flat",
          "options": {
            "mobileDefaultConstraints": {
              "left": 0,
              "right": 0,
              "top": 0,
              "bottom": 0
            }
          },
          "blocks": [
            {
              "id": "1-0",
              "type": "flat",
              "options": {
                "webAlignment": "Vertical",
                "mobileDefaultConstraints": {
                  "left": 0,
                  "right": 0,
                  "top": 16,
                  "bottom": 0
                },
                "mobileBackgroundColor": "FFFFFF"
              },
              "elements": [
                {
                  "id": "1-0-0",
                  "type": "flatList",
                  "options": {
                    "showUnderline": true,
                    "mobileDefaultConstraints": {
                      "left": 16,
                      "right": 16,
                      "top": 8,
                      "bottom": 0
                    },
                    "description": {
                      "ru-RU": "Информация",
                      "kz-KZ": "Ақпарат",
                      "en-US": "Information"
                    },
                    "listData": [
                      {
                        "id": "1-0-0-0",
                        "label": {
                          "ru-RU": "Номер парковки",
                          "kz-KZ": "Тұрақ нөмірі",
                          "en-US": "Parking number"
                        },
                        "value": "{0}",
                        "dependencies": [
                          "parkingZone"
                        ]
                      },
                      {
                        "id": "1-0-0-1",
                        "label": {
                          "ru-RU": "Номер авто",
                          "kz-KZ": "Көлік нөмірі",
                          "en-US": "Car number"
                        },
                        "value": "{0}",
                        "dependencies": [
                          "contract"
                        ]
                      },
                      {
                        "id": "1-0-0-2",
                        "label": {
                          "ru-RU": "Длительность парковки (мин)",
                          "kz-KZ": "Тұрақ ұзақтығы (мин)",
                          "en-US": "Parking duration (min)"
                        },
                        "value": "{0}",
                        "dependencies": [
                          "parkingTimeInMinute"
                        ]
                      },
                      {
                        "id": "1-0-0-3",
                        "label": {
                          "ru-RU": "Время окончания парковки",
                          "kz-KZ": "Тұрақтың аяқталу уақыты",
                          "en-US": "Parking end time"
                        },
                        "value": "{0}",
                        "dependencies": [
                          "timeEndingPark"
                        ]
                      }
                    ]
                  }
                }
              ]
            },
            {
              "id": "1-1",
              "type": "flat",
              "options": {
                "webAlignment": "Vertical",
                "mobileDefaultConstraints": {
                  "left": 0,
                  "right": 0,
                  "top": 16,
                  "bottom": 0
                }
              },
              "elements": [
                {
                  "id": "1-1-0",
                  "parameterId": "invoiceItems",
                  "type": "invoiceAmount",
                  "options": {
                    "setAmountParam": "amount",
                    "webAlignment": "Vertical",
                    "mobileDefaultConstraints": {
                      "left": 16,
                      "right": 16,
                      "top": 0,
                      "bottom": 0
                    },
                    "description": {
                      "ru-RU": "Сумма к оплате",
                      "kz-KZ": "Төленетін сома",
                      "en-US": "Amount to pay"
                    },
                    "webPlaceholder": {
                      "ru-RU": "200",
                      "kz-KZ": "200",
                      "en-US": "200"
                    },
                    "formatting": "priceAmount",
                    "keyboard": "decimal",
                    "onResignPreCheck": {
                      "parameterId": "amount",
                      "checkCondition": {
                        "range": {
                          "min": "1",
                          "max": "1000000000",
                          "dataType": "double"
                        }
                      },
                      "errorActions": [
                        {
                          "id": "rpc-1.0",
                          "type": "highlightElem",
                          "options": {
                            "targetElem": "1-1-0",
                            "highlightParent": true,
                            "text": {
                              "ru-RU": "Введите сумму",
                              "kz-KZ": "Соманы енгізіңіз",
                              "en-US": "Please enter the amount"
                            }
                          }
                        }
                      ]
                    }
                  }
                }
              ]
            },
            {
              "id": "1-2",
              "type": "flat",
              "options": {
                "webAlignment": "Vertical",
                "mobileDefaultConstraints": {
                  "left": 0,
                  "right": 0,
                  "top": 8,
                  "bottom": 0
                }
              },
              "elements": [
                {
                  "id": "1-2-0",
                  "parameterId": "commission",
                  "actionId": "commissionAlert",
                  "type": "commission",
                  "options": {
                    "calculateFromParamId": "amount",
                    "webTextAligment": "left",
                    "mobileTextAlignment": "center",
                    "mobileDefaultConstraints": {
                      "left": 0,
                      "right": 0,
                      "top": 8,
                      "bottom": 0
                    },
                    "description": {
                      "ru-RU": "Комиссия: {0} ₸",
                      "kz-KZ": "Комиссия: {0} ₸",
                      "en-US": "Commission: {0} ₸"
                    },
                    "highLightedText": [
                      {
                        "ru-RU": "{0} ₸",
                        "kz-KZ": "{0} ₸",
                        "en-US": "{0} ₸"
                      }
                    ],
                    "dependencies": [
                      "commission"
                    ]
                  }
                }
              ]
            },
            {
              "id": "1-3",
              "type": "roundedContainer",
              "options": {
                "webAlignment": "Vertical",
                "mobileDefaultConstraints": {
                  "left": 16,
                  "right": 16,
                  "top": 16,
                  "bottom": 0
                }
              },
              "elements": [
                {
                  "id": "1-3-0",
                  "parameterId": "card",
                  "type": "paymentSelector",
                  "options": {
                    "mobileDefaultConstraints": {
                      "left": 16,
                      "right": 16,
                      "top": 2,
                      "bottom": 2
                    },
                    "label": {
                      "ru-RU": "Выберите способ оплаты",
                      "kz-KZ": "Төлем әдісін таңдаңыз",
                      "en-US": "Choose a payment method"
                    }
                  }
                }
              ]
            },
            {
              "id": "1-4",
              "type": "flat",
              "options": {
                "webAlignment": "Vertical",
                "mobileDefaultConstraints": {
                  "left": 0,
                  "right": 0,
                  "top": 16,
                  "bottom": 80
                }
              },
              "elements": [
                {
                  "id": "1-4-0",
                  "type": "submit",
                  "actionId": "showExecPage",
                  "parameterId": "overallAmount",
                  "options": {
                    "webTextAligment": "center",
                    "mobileDefaultConstraints": {
                      "left": 16,
                      "right": 16,
                      "top": 16,
                      "bottom": 0
                    },
                    "description": {
                      "ru-RU": "Оплатить {0} ₸",
                      "kz-KZ": "Төлеу үшін {0} ₸",
                      "en-US": "Pay {0} ₸"
                    },
                    "dependencies": [
                      "overallAmount"
                    ],
                    "sumFromParams": [
                      "amount",
                      "commission"
                    ]
                  }
                }
              ]
            }
          ]
        }
      ]
    },
    {
      "id": "execPage",
      "type": "execPage",
      "options": {
        "actionId": "exec",
        "displayInfo": {
          "card": "card",
          "commission": "commission",
          "amount": "amount"
        }
      },
      "containers": []
    },
    {
      "id": "noInvoicePage",
      "type": "noInvoicePage",
      "options": {
        "displayInfo": {
          "contract": "contract"
        }
      },
      "containers": []
    }
  ],
  "parameters": [
    {
      "id": "contract",
      "dataType": "string"
    },
    {
      "id": "timeEndingPark",
      "dataType": "string"
    },
    {
      "id": "parkingTimeInMinute",
      "dataType": "string"
    },
    {
      "id": "parkingZone",
      "dataType": "string"
    },
    {
      "id": "bookingNumber",
      "dataType": "string"
    },
    {
      "id": "orderDescription",
      "dataType": "string"
    },
    {
      "id": "currencyCode",
      "dataType": "string"
    },
    {
      "id": "continue",
      "dataType": "double"
    },
    {
      "id": "invoiceId",
      "dataType": "string"
    },
    {
      "id": "clientName",
      "dataType": "string"
    },
    {
      "id": "amount",
      "dataType": "double"
    },
    {
      "id": "invoiceItems",
      "dataType": "array"
    },
    {
      "id": "card",
      "dataType": "cardData"
    },
    {
      "id": "overallAmount",
      "dataType": "double"
    },
    {
      "id": "commission",
      "dataType": "double"
    },
    {
      "id": "errorDesc",
      "dataType": "string"
    }
  ],
  "actions": [
    {
      "id": "hideAllErrors",
      "type": "hideAllErrors",
      "options": {}
    },
    {
      "id": "commissionAlert",
      "type": "alert",
      "options": {
        "text": {
          "ru-RU": "Комиссия Homebank 0 ₸ \nКомиссия агрегатора {0} ₸",
          "kz-KZ": "Homebank комиссиясы 0 ₸ \nАгрегатордың комиссиясы {0} ₸",
          "en-US": "Homebank Commission 0 ₸ \nAggregator commission {0} ₸"
        },
        "title": {
          "ru-RU": "Комиссия",
          "kz-KZ": "Комиссия",
          "en-US": "Commission"
        },
        "dependencies": [
          "commission"
        ]
      }
    },
    {
      "id": "checkContract",
      "type": "checkRequest",
      "options": {
        "parameters": [
          {
            "id": "contract",
            "valueFromParam": "contract"
          },
          {
            "id": "parkingZone",
            "valueFromParam": "parkingZone"
          },
          {
            "id": "parkingTimeInMinute",
            "valueFromParam": "parkingTimeInMinute"
          }
        ],
        "preChecks": [
          {
            "parameterId": "contract",
            "checkCondition": {
              "regex": ".{5,}$"
            },
            "errorActions": [
              {
                "id": "pc-0.0",
                "type": "setParam",
                "options": {
                  "dataType": "double",
                  "value": null,
                  "parameterId": "continue"
                }
              },
              {
                "id": "pc-0.1",
                "type": "highlightElem",
                "options": {
                  "targetElem": "0-0-0",
                  "highlightParent": false,
                  "text": {
                    "ru-RU": "Введите корректный Номер авто",
                    "kz-KZ": "Жарамды көлік нөмірін енгізіңіз",
                    "en-US": "Please enter a valid car number"
                  }
                }
              },
              {
                "id": "pc-0.2",
                "type": "becomeFirstResponder",
                "options": {
                  "targetElem": "0-0-0"
                }
              },
              {
                "id": "pc-0.3",
                "type": "taptic",
                "options": {
                  "tapType": "warning"
                }
              }
            ]
          },
          {
            "parameterId": "parkingZone",
            "checkCondition": {
              "regex": ".{1,}$"
            },
            "errorActions": [
              {
                "id": "pc-1.0",
                "type": "setParam",
                "options": {
                  "dataType": "double",
                  "value": null,
                  "parameterId": "continue"
                }
              },
              {
                "id": "pc-1.1",
                "type": "highlightElem",
                "options": {
                  "targetElem": "0-0-1",
                  "highlightParent": false,
                  "text": {
                    "ru-RU": "Введите корректный Номер парковки",
                    "kz-KZ": "Жарамды тұрақ нөмірін енгізіңіз",
                    "en-US": "Please enter a valid parking number"
                  }
                }
              },
              {
                "id": "pc-1.2",
                "type": "becomeFirstResponder",
                "options": {
                  "targetElem": "0-0-1"
                }
              },
              {
                "id": "pc-1.3",
                "type": "taptic",
                "options": {
                  "tapType": "warning"
                }
              }
            ]
          },
          {
            "parameterId": "parkingTimeInMinute",
            "checkCondition": {
              "range": {
                "min": "1",
                "max": "1000000",
                "dataType": "int"
              }
            },
            "errorActions": [
              {
                "id": "pc-2.0",
                "type": "setParam",
                "options": {
                  "dataType": "double",
                  "value": null,
                  "parameterId": "continue"
                }
              },
              {
                "id": "pc-2.1",
                "type": "highlightElem",
                "options": {
                  "targetElem": "0-0-2",
                  "highlightParent": false,
                  "text": {
                    "ru-RU": "Введите длительность парковки",
                    "kz-KZ": "Тұрақ ұзақтығын енгізіңіз",
                    "en-US": "Enter parking duration"
                  }
                }
              },
              {
                "id": "pc-2.2",
                "type": "becomeFirstResponder",
                "options": {
                  "targetElem": "0-0-2"
                }
              },
              {
                "id": "pc-2.3",
                "type": "taptic",
                "options": {
                  "tapType": "warning"
                }
              }
            ]
          }
        ],
        "errorResponseActions": [
          {
            "code": "-253",
            "responseActions": [
              {
                "id": "era-0.1",
                "type": "setParam",
                "options": {
                  "dataType": "double",
                  "value": null,
                  "parameterId": "continue"
                }
              },
              {
                "id": "era-0.2",
                "type": "highlightElem",
                "options": {
                  "targetElem": "0-0-0",
                  "highlightParent": true,
                  "text": {
                    "ru-RU": "Данный абонент не найден",
                    "kz-KZ": "Бұл шот табылмады",
                    "en-US": "This account was not found"
                  }
                }
              },
              {
                "id": "era-0.3",
                "type": "becomeFirstResponder",
                "options": {
                  "targetElem": "0-0-0"
                }
              },
              {
                "id": "era-0.4",
                "type": "taptic",
                "options": {
                  "tapType": "warning"
                }
              }
            ]
          },
          {
            "code": "other",
            "responseActions": [
              {
                "id": "era-1.0",
                "type": "setParam",
                "options": {
                  "dataType": "double",
                  "value": null,
                  "parameterId": "continue"
                }
              },
              {
                "id": "era-1.1",
                "type": "setParam",
                "options": {
                  "dataType": "string",
                  "valueFrom": [
                    {
                      "id": "resultDescription",
                      "dataType": "string"
                    }
                  ],
                  "parameterId": "errorDesc"
                }
              },
              {
                "id": "era-1.2",
                "type": "alert",
                "options": {
                  "text": {
                    "ru-RU": "{0}",
                    "kz-KZ": "{0}",
                    "en-US": "{0}"
                  },
                  "title": {
                    "ru-RU": "Ошибка",
                    "kz-KZ": "Қате",
                    "en-US": "Error"
                  },
                  "dependencies": [
                    "errorDesc"
                  ]
                }
              },
              {
                "id": "era-1.3",
                "type": "taptic",
                "options": {
                  "tapType": "warning"
                }
              }
            ]
          }
        ],
        "successResponseActions": [
          {
            "id": "sra-0.0",
            "type": "setParam",
            "options": {
              "dataType": "double",
              "value": null,
              "parameterId": "continue"
            }
          },
          {
            "id": "sra-0.1",
            "type": "setParam",
            "options": {
              "dataType": "string",
              "valueFrom": [
                {
                  "id": "invoices",
                  "dataType": "array",
                  "jsonEncode": true
                },
                {
                  "id": "0",
                  "dataType": "dict"
                },
                {
                  "id": "id",
                  "dataType": "string"
                }
              ],
              "parameterId": "invoiceId"
            }
          },
          {
            "id": "setclientname",
            "type": "setParam",
            "options": {
              "dataType": "string",
              "valueFrom": [
                {
                  "id": "invoices",
                  "dataType": "array",
                  "jsonEncode": true
                },
                {
                  "id": "0",
                  "dataType": "dict"
                },
                {
                  "id": "headerParams",
                  "dataType": "array"
                },
                {
                  "id": "1",
                  "dataType": "dict"
                },
                {
                  "id": "paramValue",
                  "dataType": "string"
                }
              ],
              "parameterId": "timeEndingPark"
            }
          },
          {
            "id": "sra-0.3",
            "type": "setParam",
            "options": {
              "dataType": "array",
              "valueFrom": [
                {
                  "id": "invoices",
                  "dataType": "array",
                  "jsonEncode": true
                },
                {
                  "id": "0",
                  "dataType": "dict"
                },
                {
                  "id": "items",
                  "dataType": "array"
                }
              ],
              "parameterId": "invoiceItems"
            }
          },
          {
            "id": "sra-0.4",
            "type": "showPage",
            "options": {
              "pageId": "secondPage",
              "checkInvoice": {
                "parameterId": "invoiceItems",
                "fallbackPageId": "noInvoicePage"
              }
            }
          }
        ]
      }
    },
    {
      "id": "showExecPage",
      "type": "showPage",
      "options": {
        "pageId": "execPage",
        "parameters": [
          {
            "id": "contract",
            "valueFromParam": "contract"
          }
        ],
        "preChecks": [
          {
            "parameterId": "amount",
            "checkCondition": {
              "range": {
                "min": "1",
                "max": "1000000000000",
                "dataType": "double"
              }
            },
            "errorActions": [
              {
                "id": "pc-1.0",
                "type": "setParam",
                "options": {
                  "dataType": "double",
                  "value": null,
                  "parameterId": "overallAmount"
                }
              },
              {
                "id": "pc-1.1",
                "type": "highlightElem",
                "options": {
                  "targetElem": "1-1-0",
                  "text": {
                    "ru-RU": "Сумма оплаты должна превышать 1 ₸",
                    "kz-KZ": "Төлем мөлшері 1 ₸ асу керек.",
                    "en-US": "Payment amount must be above 1 ₸"
                  }
                }
              },
              {
                "id": "pc-1.2",
                "type": "becomeFirstResponder",
                "options": {
                  "targetElem": "1-1-0"
                }
              },
              {
                "id": "pc-1.3",
                "type": "taptic",
                "options": {
                  "tapType": "warning"
                }
              }
            ]
          },
          {
            "parameterId": "card",
            "errorActions": [
              {
                "id": "pc-2.0",
                "type": "setParam",
                "options": {
                  "dataType": "double",
                  "value": null,
                  "parameterId": "overallAmount"
                }
              },
              {
                "id": "pc-2.1",
                "type": "highlightElem",
                "options": {
                  "targetElem": "1-3-0",
                  "highlightParent": true
                }
              },
              {
                "id": "pc-2.2",
                "type": "becomeFirstResponder",
                "options": {
                  "targetElem": "1-3-0"
                }
              },
              {
                "id": "pc-2.3",
                "type": "taptic",
                "options": {
                  "tapType": "warning"
                }
              }
            ]
          }
        ],
        "errorResponseActions": [
          {
            "code": "other",
            "responseActions": [
              {
                "id": "era-2.0",
                "type": "setParam",
                "options": {
                  "dataType": "double",
                  "value": null,
                  "parameterId": "overallAmount"
                }
              },
              {
                "id": "era-2.1",
                "type": "setParam",
                "options": {
                  "dataType": "string",
                  "valueFrom": [
                    {
                      "id": "resultDescription",
                      "dataType": "string"
                    }
                  ],
                  "parameterId": "errorDesc"
                }
              },
              {
                "id": "era-2.2",
                "type": "alert",
                "options": {
                  "text": {
                    "ru-RU": "{0}",
                    "kz-KZ": "{0}",
                    "en-US": "{0}"
                  },
                  "title": {
                    "ru-RU": "Ошибка",
                    "kz-KZ": "Қате",
                    "en-US": "Error"
                  },
                  "dependencies": [
                    "errorDesc"
                  ]
                }
              },
              {
                "id": "era-2.3",
                "type": "taptic",
                "options": {
                  "tapType": "warning"
                }
              }
            ]
          }
        ],
        "successResponseActions": [
          {
            "id": "sra-1.0",
            "type": "showPage",
            "options": {
              "pageId": "execPage"
            }
          }
        ]
      }
    },
    {
      "id": "exec",
      "type": "execRequest",
      "options": {
        "chosenCardParam": "card",
        "parameters": [
          {
            "id": "invoiceDetails",
            "valueFromParam": "invoiceItems"
          },
          {
            "id": "invoiceId",
            "valueFromParam": "invoiceId"
          },
          {
            "id": "amount",
            "valueFromParam": "amount"
          }
        ],
        "errorResponseActions": [
          {
            "code": "other",
            "responseActions": [
              {
                "id": "era-3.0",
                "type": "setParam",
                "options": {
                  "dataType": "double",
                  "value": null,
                  "parameterId": "overallAmount"
                }
              },
              {
                "id": "era-3.1",
                "type": "setParam",
                "options": {
                  "dataType": "string",
                  "valueFrom": [
                    {
                      "id": "resultDescription",
                      "dataType": "string"
                    }
                  ],
                  "parameterId": "errorDesc"
                }
              },
              {
                "id": "era-3.2",
                "type": "alert",
                "options": {
                  "text": {
                    "ru-RU": "{0}",
                    "kz-KZ": "{0}",
                    "en-US": "{0}"
                  },
                  "title": {
                    "ru-RU": "Ошибка",
                    "kz-KZ": "Қате",
                    "en-US": "Error"
                  },
                  "dependencies": [
                    "errorDesc"
                  ]
                }
              },
              {
                "id": "era-3.4",
                "type": "taptic",
                "options": {
                  "tapType": "warning"
                }
              }
            ]
          }
        ],
        "successResponseActions": [
          {
            "id": "sra-2.0",
            "type": "setParam",
            "options": {
              "dataType": "double",
              "value": null,
              "parameterId": "overallAmount"
            }
          },
          {
            "id": "sra-2.1",
            "type": "finishTemplate",
            "options": {
              "title": {
                "ru-RU": "Спасибо",
                "kz-KZ": "Рахмет",
                "en-US": "Thanks"
              },
              "text": {
                "ru-RU": "Ваш платеж успешно отправлен в обработку!",
                "kz-KZ": "Сіздің төлеміңіз сәтті өңдеуге жіберілді!",
                "en-US": "Your payment has been successfully sent for processing!"
              }
            }
          }
        ]
      }
    }
  ]
}
