{
  "id": "replaceInputFieldID",
  "parameterId": "contract",
  "type": "inputField",
  "options": {
    
    "webAlignment": "Vertical",
    
    "mobileDefaultConstraints": {
      "left": 16,
      "right": 16,
      "top": 2,
      "bottom": 2
    },
    "onValueChangeActions": [
      "hideAllErrors"
    ],
    "description": {
      "ru-RU": "Сумма к оплате",
      "kz-KZ": "Сумма к оплате",
      "en-US": "Amount to pay"
    },
    "webPlaceholder": {
      "ru-RU": "+7 ___-___-__-__",
      "kz-KZ": "+7 ___-___-__-__",
      "en-US": "+7 ___-___-__-__"
    },
    "formatting": "phoneNumber",
    "keyboard": "decimal"
  }
}
    ]
