{
  "id": "replace",
  "actionId": "someAlert",
  "type": "label",
  "options": {
    "webTextAlignment": "left",
    "mobileTextAlignment": "center",
    "mobileDefaultConstraints": {
      "left": 0,
      "right": 0,
      "top": 0,
      "bottom": 0
    },
    "description": {
      "ru-RU": "Номер счета указан на бумажной квитанции",
      "kz-KZ": "Номер счета указан на бумажной квитанции",
      "en-US": "Номер счета указан на бумажной квитанции"
    },
    "highLightedText": [{
      "ru-RU": "Номер счета",
      "kz-KZ": "Номер счета",
      "en-US": "Номер счета"
    }],
    "icon": "info",
    "fontSize": 20
  }
}